<?xml version="1.0" encoding="utf-8"?>
<svg xml:space="preserve" viewBox="0 0 100 100" y="0" x="0" xmlns="http://www.w3.org/2000/svg" id="圖層_1" version="1.1" style="height: 100%; width: 100%; background: rgb(255, 255, 255); shape-rendering: auto;" width="200px" height="200px"><g class="ldl-scale" style="transform-origin: 50% 50%; transform: rotate(0deg) scale(0.8, 0.8);"><g class="ldl-ani"><linearGradient y2="73.017" x2="61.499" y1="20.875" x1="35.543" gradientUnits="userSpaceOnUse" id="SVGID_1_"><stop stop-color="#ff7bac" offset="0" style="stop-color: rgb(255, 123, 172);"></stop><stop stop-color="#a0c8d7" offset="1" style="stop-color: rgb(160, 200, 215);"></stop></linearGradient><g class="ldl-layer"><g class="ldl-ani" style="transform: scale(0.91); transform-origin: 50px 50px; animation: 1.11111s linear -0.666667s infinite normal forwards running breath-64503861-8775-4581-92cd-57e9c94dfd8b;"><circle fill="url(#SVGID_1_)" opacity=".8" r="28.253" cy="48.003" cx="49.047"></circle></g></g><linearGradient y2="88.699" x2="73.612" y1="67.763" x1="63.19" gradientUnits="userSpaceOnUse" id="SVGID_2_"><stop stop-color="#ff7bac" offset="0" style="stop-color: rgb(255, 123, 172);"></stop><stop stop-color="#a0c8d7" offset="1" style="stop-color: rgb(160, 200, 215);"></stop></linearGradient><g class="ldl-layer"><g class="ldl-ani" style="transform: scale(0.91); transform-origin: 50px 50px; animation: 1.11111s linear -0.777778s infinite normal forwards running breath-64503861-8775-4581-92cd-57e9c94dfd8b;"><circle fill="url(#SVGID_2_)" opacity=".8" r="11.345" cy="78.655" cx="68.612"></circle></g></g><linearGradient y2="46.078" x2="79.851" y1="15.089" x1="64.425" gradientUnits="userSpaceOnUse" id="SVGID_3_"><stop stop-color="#ff7bac" offset="0" style="stop-color: rgb(255, 123, 172);"></stop><stop stop-color="#a0c8d7" offset="1" style="stop-color: rgb(160, 200, 215);"></stop></linearGradient><g class="ldl-layer"><g class="ldl-ani" style="transform: scale(0.91); transform-origin: 50px 50px; animation: 1.11111s linear -0.888889s infinite normal forwards running breath-64503861-8775-4581-92cd-57e9c94dfd8b;"><circle fill="url(#SVGID_3_)" opacity=".8" r="16.791" cy="31.212" cx="72.451"></circle></g></g><linearGradient y2="75.715" x2="37.994" y1="52.211" x1="26.294" gradientUnits="userSpaceOnUse" id="SVGID_4_"><stop stop-color="#ff7bac" offset="0" style="stop-color: rgb(255, 123, 172);"></stop><stop stop-color="#a0c8d7" offset="1" style="stop-color: rgb(160, 200, 215);"></stop></linearGradient><g class="ldl-layer"><g class="ldl-ani" style="transform: scale(0.91); transform-origin: 50px 50px; animation: 1.11111s linear -1s infinite normal forwards running breath-64503861-8775-4581-92cd-57e9c94dfd8b;"><circle opacity=".8" fill="url(#SVGID_4_)" r="12.736" cy="64.439" cx="32.381"></circle></g></g><linearGradient y2="26.757" x2="23.563" y1="10.354" x1="15.397" gradientUnits="userSpaceOnUse" id="SVGID_5_"><stop stop-color="#ff7bac" offset="0" style="stop-color: rgb(255, 123, 172);"></stop><stop stop-color="#a0c8d7" offset="1" style="stop-color: rgb(160, 200, 215);"></stop></linearGradient><g class="ldl-layer"><g class="ldl-ani" style="transform: scale(0.91); transform-origin: 50px 50px; animation: 1.11111s linear -1.11111s infinite normal forwards running breath-64503861-8775-4581-92cd-57e9c94dfd8b;"><circle fill="url(#SVGID_5_)" opacity=".8" r="8.888" cy="18.888" cx="19.646"></circle></g></g><metadata xmlns:d="https://loading.io/stock/">
<d:name>bubble</d:name>
<d:tags>bubble,circle,soap foam,soapy water,sphere</d:tags>
<d:license>by</d:license>
<d:slug>bhljiu</d:slug>
</metadata></g></g><style id="breath-64503861-8775-4581-92cd-57e9c94dfd8b" data-anikit="">@keyframes breath-64503861-8775-4581-92cd-57e9c94dfd8b
{
  0% {
    animation-timing-function: cubic-bezier(0.9647,0.2413,-0.0705,0.7911);
    transform: scale(0.9099999999999999);
  }
  51% {
    animation-timing-function: cubic-bezier(0.9226,0.2631,-0.0308,0.7628);
    transform: scale(1.02994);
  }
  100% {
    transform: scale(0.9099999999999999);
  }
}</style><!-- [ldio] generated by https://loading.io/ --></svg>