<svg width="600" height="450" viewBox="0 0 800 600" fill="none" xmlns="http://www.w3.org/2000/svg" data-reactroot="">
<path opacity="0.7" d="M176.715 464.011H57.2617C31.1899 464.011 10 442.822 10 416.75V297.297C10 271.225 31.1899 250.035 57.2617 250.035H176.715C202.786 250.035 223.976 271.225 223.976 297.297V416.75C223.976 442.822 202.786 464.011 176.715 464.011ZM57.2617 275.588C45.3165 275.588 35.5525 285.352 35.5525 297.297V416.75C35.5525 428.695 45.3165 438.459 57.2617 438.459H176.715C188.66 438.459 198.424 428.695 198.424 416.75V297.297C198.424 285.352 188.66 275.588 176.715 275.588H57.2617Z" fill="#FFE7C2"></path>
<path opacity="0.7" d="M700.126 169.017V517.715C700.126 528.933 691.089 537.97 679.871 537.97H115.327C104.108 537.97 95.0715 528.933 95.0715 517.715V169.017C95.0715 157.799 104.108 148.762 115.327 148.762H679.871C690.985 148.762 700.126 157.902 700.126 169.017Z" fill="#FFE7C2"></path>
<path opacity="0.7" d="M490.096 148.242H456.857C456.857 186.571 425.695 217.629 387.47 217.629C349.142 217.629 318.084 186.467 318.084 148.242H284.845C284.845 204.956 330.756 250.868 387.47 250.868C444.081 250.972 490.096 204.956 490.096 148.242Z" fill="#9E6B93"></path>
<path opacity="0.6" d="M274.77 148.762V537.866L115.337 537.979C104.118 537.979 95.0715 528.829 95.0715 517.611V169.017C95.0715 157.799 104.108 148.762 115.327 148.762H274.77Z" fill="#FFE7C2"></path>
<path d="M132.049 183.039H115.534V199.555H132.049V183.039Z" fill="#9E6B93"></path>
<path d="M266.875 183.039H145.24V199.555H266.875V183.039Z" fill="#9E6B93"></path>
<path d="M155.212 206.617H145.24V215.654H155.212V206.617Z" fill="#9E6B93"></path>
<path d="M191.672 208.074H160.095V214.203H191.672V208.074Z" fill="#9E6B93"></path>
<path d="M171.832 224.586H163.418V232.169H171.832V224.586Z" fill="#9E6B93"></path>
<path d="M202.37 225.73H175.883V230.924H202.37V225.73Z" fill="#9E6B93"></path>
<path d="M171.832 236.738H163.418V244.321H171.832V236.738Z" fill="#9E6B93"></path>
<path d="M202.37 237.988H175.883V243.182H202.37V237.988Z" fill="#9E6B93"></path>
<path d="M232.598 237.988H206.111V243.182H232.598V237.988Z" fill="#9E6B93"></path>
<path d="M171.832 248.996H163.418V256.579H171.832V248.996Z" fill="#9E6B93"></path>
<path d="M195.93 250.141H175.883V255.334H195.93V250.141Z" fill="#9E6B93"></path>
<path d="M171.832 261.148H163.418V268.731H171.832V261.148Z" fill="#9E6B93"></path>
<path d="M193.437 262.398H175.883V267.592H193.437V262.398Z" fill="#9E6B93"></path>
<path d="M232.495 262.398H197.282V267.592H232.495V262.398Z" fill="#9E6B93"></path>
<path d="M171.832 273.305H163.418V280.887H171.832V273.305Z" fill="#9E6B93"></path>
<path d="M202.37 274.551H175.883V279.744H202.37V274.551Z" fill="#9E6B93"></path>
<path d="M184.296 285.559H175.883V293.141H184.296V285.559Z" fill="#9E6B93"></path>
<path d="M214.731 286.703H188.244V291.897H214.731V286.703Z" fill="#9E6B93"></path>
<path d="M184.296 297.715H175.883V305.297H184.296V297.715Z" fill="#9E6B93"></path>
<path d="M214.731 298.961H188.244V304.155H214.731V298.961Z" fill="#9E6B93"></path>
<path d="M184.296 309.867H175.883V317.45H184.296V309.867Z" fill="#9E6B93"></path>
<path d="M214.731 311.113H188.244V316.307H214.731V311.113Z" fill="#9E6B93"></path>
<path d="M132.049 206.617H115.534V223.133H132.049V206.617Z" fill="#9E6B93"></path>
<path d="M132.049 230.199H115.534V246.715H132.049V230.199Z" fill="#9E6B93"></path>
<path d="M132.049 253.777H115.534V270.293H132.049V253.777Z" fill="#9E6B93"></path>
<path d="M132.049 277.25H115.534V293.766H132.049V277.25Z" fill="#9E6B93"></path>
<path d="M132.049 300.832H115.534V317.348H132.049V300.832Z" fill="#9E6B93"></path>
<path d="M132.049 324.41H115.534V340.926H132.049V324.41Z" fill="#9E6B93"></path>
<path d="M132.049 347.883H115.534V364.398H132.049V347.883Z" fill="#9E6B93"></path>
<path d="M132.049 371.465H115.534V387.98H132.049V371.465Z" fill="#9E6B93"></path>
<path d="M132.049 395.043H115.534V411.559H132.049V395.043Z" fill="#9E6B93"></path>
<path d="M132.049 452.484H115.534V469H132.049V452.484Z" fill="#9E6B93"></path>
<path d="M132.049 475.957H115.534V492.473H132.049V475.957Z" fill="#9E6B93"></path>
<path d="M132.049 499.535H115.534V516.051H132.049V499.535Z" fill="#9E6B93"></path>
<path d="M156.979 225.312V231.337L160.718 228.325L156.979 225.312Z" fill="#9E6B93"></path>
<path d="M156.979 237.57V243.491L160.718 240.583L156.979 237.57Z" fill="#9E6B93"></path>
<path d="M156.979 274.133V280.157L160.718 277.145L156.979 274.133Z" fill="#9E6B93"></path>
<path d="M171.832 332.613H163.418V340.196H171.832V332.613Z" fill="#9E6B93"></path>
<path d="M202.37 333.859H175.883V339.053H202.37V333.859Z" fill="#9E6B93"></path>
<path d="M184.296 344.871H175.883V352.454H184.296V344.871Z" fill="#9E6B93"></path>
<path d="M214.731 346.016H188.244V351.209H214.731V346.016Z" fill="#9E6B93"></path>
<path d="M184.296 357.023H175.883V364.606H184.296V357.023Z" fill="#9E6B93"></path>
<path d="M214.731 358.27H188.244V363.463H214.731V358.27Z" fill="#9E6B93"></path>
<path d="M184.296 369.176H175.883V376.758H184.296V369.176Z" fill="#9E6B93"></path>
<path d="M214.731 370.426H188.244V375.619H214.731V370.426Z" fill="#9E6B93"></path>
<path d="M156.979 333.445V339.366L160.718 336.458L156.979 333.445Z" fill="#9E6B93"></path>
<path opacity="0.7" d="M700.125 328.457V518.647C700.125 529.345 691.504 537.967 680.805 537.967H307.697V342.168C307.697 334.585 313.825 328.457 321.408 328.457H700.125Z" fill="#FFE7C2"></path>
<path d="M400.767 367.516H336.055V387.459H400.767V367.516Z" fill="#9E6B93"></path>
<path d="M615.261 367.516H560.728V387.459H615.261V367.516Z" fill="#9E6B93"></path>
<path d="M682.364 367.516H627.831V387.459H682.364V367.516Z" fill="#9E6B93"></path>
<path d="M698.983 416.129H379.265V512.003H698.983V416.129Z" fill="#9E6B93"></path>
<path d="M20.4919 102.953C22.9587 102.953 24.9584 100.953 24.9584 98.486C24.9584 96.0192 22.9587 94.0195 20.4919 94.0195C18.0251 94.0195 16.0254 96.0192 16.0254 98.486C16.0254 100.953 18.0251 102.953 20.4919 102.953Z" fill="#FFE7C2"></path>
<path d="M20.4919 119.679C22.9587 119.679 24.9584 117.679 24.9584 115.213C24.9584 112.746 22.9587 110.746 20.4919 110.746C18.0251 110.746 16.0254 112.746 16.0254 115.213C16.0254 117.679 18.0251 119.679 20.4919 119.679Z" fill="#FFE7C2"></path>
<path d="M20.4919 136.503C22.9587 136.503 24.9584 134.504 24.9584 132.037C24.9584 129.57 22.9587 127.57 20.4919 127.57C18.0251 127.57 16.0254 129.57 16.0254 132.037C16.0254 134.504 18.0251 136.503 20.4919 136.503Z" fill="#FFE7C2"></path>
<path opacity="0.7" d="M437.018 40.1129V178.678C437.018 185.845 431.201 191.662 424.034 191.662H300.738C293.571 191.662 287.754 185.845 287.754 178.678V40.1129C287.754 32.9457 293.571 27.1289 300.738 27.1289H424.034C431.201 27.1289 437.018 32.9457 437.018 40.1129Z" fill="#FFE7C2"></path>
<path opacity="0.7" d="M437.018 160.605V178.679C437.018 185.846 431.201 191.663 424.034 191.663H300.738C293.571 191.663 287.754 185.846 287.754 178.679V160.605H437.018Z" fill="#FFE7C2"></path>
<path opacity="0.8" d="M424.034 32.1148C428.397 32.1148 432.032 35.7503 432.032 40.1129V178.678C432.032 183.041 428.397 186.676 424.034 186.676H300.738C296.375 186.676 292.74 183.041 292.74 178.678V40.1129C292.74 35.7503 296.375 32.1148 300.738 32.1148H424.034ZM424.034 27.1289H300.738C293.571 27.1289 287.754 32.9457 287.754 40.1129V178.678C287.754 185.845 293.571 191.662 300.738 191.662H424.034C431.201 191.662 437.018 185.845 437.018 178.678V40.1129C437.018 32.9457 431.201 27.1289 424.034 27.1289Z" fill="#FFE7C2"></path>
<path opacity="0.7" d="M362.438 178.989C365.307 178.989 367.632 176.664 367.632 173.795C367.632 170.927 365.307 168.602 362.438 168.602C359.57 168.602 357.245 170.927 357.245 173.795C357.245 176.664 359.57 178.989 362.438 178.989Z" fill="#FFE7C2"></path>
<path opacity="0.7" d="M472.543 64.5234H611.108C618.275 64.5234 624.092 70.3403 624.092 77.5074V141.181C624.092 148.348 618.275 154.165 611.108 154.165H472.543C465.375 154.165 459.559 148.348 459.559 141.181V77.5074C459.559 70.3403 465.375 64.5234 472.543 64.5234Z" fill="#FFE7C2"></path>
<path opacity="0.7" d="M592.929 64.5234H611.002C618.17 64.5234 623.986 70.3403 623.986 77.5074V141.181C623.986 148.348 618.17 154.165 611.002 154.165H592.929V64.5234Z" fill="#FFE7C2"></path>
<path opacity="0.8" d="M611.004 69.5093C615.367 69.5093 619.002 73.1448 619.002 77.5074V141.181C619.002 145.544 615.367 149.179 611.004 149.179H472.543C468.18 149.179 464.544 145.544 464.544 141.181V77.5074C464.544 73.1448 468.18 69.5093 472.543 69.5093H611.004ZM611.004 64.5234H472.543C465.375 64.5234 459.559 70.3403 459.559 77.5074V141.181C459.559 148.348 465.375 154.165 472.543 154.165H611.108C618.275 154.165 624.092 148.348 624.092 141.181V77.5074C623.988 70.3403 618.171 64.5234 611.004 64.5234Z" fill="#FFE7C2"></path>
<path opacity="0.7" d="M606.225 114.481C609.093 114.481 611.419 112.156 611.419 109.287C611.419 106.419 609.093 104.094 606.225 104.094C603.357 104.094 601.031 106.419 601.031 109.287C601.031 112.156 603.357 114.481 606.225 114.481Z" fill="#FFE7C2"></path>
<path opacity="0.7" d="M736.066 40.1129V178.678C736.066 185.845 730.249 191.662 723.082 191.662H659.512C652.345 191.662 646.528 185.845 646.528 178.678V40.1129C646.528 32.9457 652.345 27.1289 659.512 27.1289H723.186C730.249 27.1289 736.066 32.9457 736.066 40.1129Z" fill="#FFE7C2"></path>
<path opacity="0.7" d="M736.066 160.605V178.679C736.066 185.846 730.249 191.663 723.082 191.663H659.512C652.345 191.663 646.528 185.846 646.528 178.679V160.605H736.066Z" fill="#FFE7C2"></path>
<path opacity="0.8" d="M723.082 32.1148C727.444 32.1148 731.08 35.7503 731.08 40.1129V178.678C731.08 183.041 727.444 186.676 723.082 186.676H659.512C655.15 186.676 651.514 183.041 651.514 178.678V40.1129C651.514 35.7503 655.15 32.1148 659.512 32.1148H723.082ZM723.082 27.1289H659.512C652.345 27.1289 646.528 32.9457 646.528 40.1129V178.678C646.528 185.845 652.345 191.662 659.512 191.662H723.186C730.353 191.662 736.17 185.845 736.17 178.678V40.1129C736.066 32.9457 730.249 27.1289 723.082 27.1289Z" fill="#FFE7C2"></path>
<path opacity="0.7" d="M691.297 178.989C694.165 178.989 696.49 176.664 696.49 173.795C696.49 170.927 694.165 168.602 691.297 168.602C688.428 168.602 686.103 170.927 686.103 173.795C686.103 176.664 688.428 178.989 691.297 178.989Z" fill="#FFE7C2"></path>
<path opacity="0.7" d="M238.207 167.771H50.8217C46.3552 167.771 42.7197 164.135 42.7197 159.669V33.1528C42.7197 28.6863 46.3552 25.0508 50.8217 25.0508H238.207C242.673 25.0508 246.309 28.6863 246.309 33.1528V159.669C246.309 164.135 242.673 167.771 238.207 167.771Z" fill="#FFE7C2"></path>
<path opacity="0.8" d="M238.207 30.0366C239.973 30.0366 241.323 31.4908 241.323 33.1528V159.669C241.323 161.435 239.869 162.785 238.207 162.785H50.8217C49.0559 162.785 47.7055 161.331 47.7055 159.669V33.1528C47.7055 31.387 49.1597 30.0366 50.8217 30.0366H238.207ZM238.207 25.0508H50.8217C46.3552 25.0508 42.7197 28.6863 42.7197 33.1528V159.669C42.7197 164.135 46.3552 167.771 50.8217 167.771H238.207C242.673 167.771 246.309 164.135 246.309 159.669V33.1528C246.309 28.6863 242.673 25.0508 238.207 25.0508Z" fill="#FFE7C2"></path>
<path opacity="0.8" d="M256.695 191.555H32.3317C27.5536 191.555 23.7103 187.712 23.7103 182.934C23.7103 178.156 27.5536 174.312 32.3317 174.312H256.695C261.473 174.312 265.316 178.156 265.316 182.934C265.316 187.712 261.473 191.555 256.695 191.555Z" fill="#FFE7C2"></path>
<path d="M77.8276 38.8633H54.8719V45.9266H77.8276V38.8633Z" fill="#9E6B93"></path>
<path d="M153.967 38.8633H134.646V45.9266H153.967V38.8633Z" fill="#9E6B93"></path>
<path d="M177.857 38.8633H158.537V45.9266H177.857V38.8633Z" fill="#9E6B93"></path>
<path d="M201.644 38.8633H182.324V45.9266H201.644V38.8633Z" fill="#9E6B93"></path>
<path d="M225.535 38.8633H206.215V45.9266H225.535V38.8633Z" fill="#9E6B93"></path>
<path d="M218.783 56.1055H70.2457V90.1755H218.783V56.1055Z" fill="#9E6B93"></path>
<path d="M168.197 98.1758H120.624C118.042 98.1758 115.949 100.269 115.949 102.85C115.949 105.432 118.042 107.524 120.624 107.524H168.197C170.778 107.524 172.871 105.432 172.871 102.85C172.871 100.269 170.778 98.1758 168.197 98.1758Z" fill="#9E6B93"></path>
<path d="M210.369 113.648H146.176V154.574H210.369V113.648Z" fill="#9E6B93"></path>
<path d="M106.601 114.48H78.659V117.908H106.601V114.48Z" fill="#9E6B93"></path>
<path d="M120.623 122.586H78.659V126.014H120.623V122.586Z" fill="#9E6B93"></path>
<path d="M135.27 130.27H98.7071V133.697H135.27V130.27Z" fill="#9E6B93"></path>
<path d="M94.7591 130.27H78.659V133.697H94.7591V130.27Z" fill="#9E6B93"></path>
<path d="M135.27 138.059H119.585V141.486H135.27V138.059Z" fill="#9E6B93"></path>
<path d="M115.534 138.059H98.7071V141.486H115.534V138.059Z" fill="#9E6B93"></path>
<path d="M94.7591 138.059H78.659V141.486H94.7591V138.059Z" fill="#9E6B93"></path>
<path d="M85.9296 154.58H82.7096C81.3592 154.58 80.3205 153.541 80.3205 152.191V148.971C80.3205 147.621 81.3592 146.582 82.7096 146.582H85.9296C87.2799 146.582 88.3187 147.621 88.3187 148.971V152.191C88.3187 153.541 87.2799 154.58 85.9296 154.58Z" fill="#9E6B93"></path>
<path d="M96.3168 154.58H93.0968C91.7464 154.58 90.7077 153.541 90.7077 152.191V148.971C90.7077 147.621 91.7464 146.582 93.0968 146.582H96.3168C97.6671 146.582 98.7059 147.621 98.7059 148.971V152.191C98.7059 153.541 97.6671 154.58 96.3168 154.58Z" fill="#9E6B93"></path>
<path d="M106.809 154.58H103.589C102.239 154.58 101.2 153.541 101.2 152.191V148.971C101.2 147.621 102.239 146.582 103.589 146.582H106.809C108.16 146.582 109.199 147.621 109.199 148.971V152.191C109.199 153.541 108.056 154.58 106.809 154.58Z" fill="#9E6B93"></path>
<path d="M117.197 154.58H113.977C112.626 154.58 111.588 153.541 111.588 152.191V148.971C111.588 147.621 112.626 146.582 113.977 146.582H117.197C118.547 146.582 119.586 147.621 119.586 148.971V152.191C119.586 153.541 118.443 154.58 117.197 154.58Z" fill="#9E6B93"></path>
<path d="M127.584 154.58H124.364C123.013 154.58 121.975 153.541 121.975 152.191V148.971C121.975 147.621 123.013 146.582 124.364 146.582H127.584C128.934 146.582 129.973 147.621 129.973 148.971V152.191C129.973 153.541 128.934 154.58 127.584 154.58Z" fill="#9E6B93"></path>
<path d="M315.28 43.0156H298.764V50.0789H315.28V43.0156Z" fill="#9E6B93"></path>
<path d="M370.125 43.0156H356.206V50.0789H370.125V43.0156Z" fill="#9E6B93"></path>
<path d="M387.367 43.0156H373.448V50.0789H387.367V43.0156Z" fill="#9E6B93"></path>
<path d="M404.506 43.0156H390.587V50.0789H404.506V43.0156Z" fill="#9E6B93"></path>
<path d="M421.748 43.0156H407.83V50.0789H421.748V43.0156Z" fill="#9E6B93"></path>
<path d="M423.826 60.2617H299.18V94.3317H423.826V60.2617Z" fill="#9E6B93"></path>
<path d="M385.186 102.328H337.613C335.031 102.328 332.938 104.421 332.938 107.002C332.938 109.584 335.031 111.677 337.613 111.677H385.186C387.767 111.677 389.86 109.584 389.86 107.002C389.86 104.421 387.767 102.328 385.186 102.328Z" fill="#9E6B93"></path>
<path d="M416.139 120.508H363.165V155.928H416.139V120.508Z" fill="#9E6B93"></path>
<path d="M327.745 121.652H303.751V124.561H327.745V121.652Z" fill="#9E6B93"></path>
<path d="M339.794 128.504H303.751V131.412H339.794V128.504Z" fill="#9E6B93"></path>
<path d="M352.362 135.156H320.993V138.065H352.362V135.156Z" fill="#9E6B93"></path>
<path d="M317.566 135.156H303.751V138.065H317.566V135.156Z" fill="#9E6B93"></path>
<path d="M352.362 141.801H338.858V144.709H352.362V141.801Z" fill="#9E6B93"></path>
<path d="M335.431 141.801H320.993V144.709H335.431V141.801Z" fill="#9E6B93"></path>
<path d="M317.566 141.801H303.751V144.709H317.566V141.801Z" fill="#9E6B93"></path>
<path d="M309.982 156.034H307.177C306.035 156.034 305.1 155.099 305.1 153.956V151.152C305.1 150.009 306.035 149.074 307.177 149.074H309.982C311.124 149.074 312.059 150.009 312.059 151.152V153.956C312.059 155.099 311.124 156.034 309.982 156.034Z" fill="#9E6B93"></path>
<path d="M318.914 156.034H316.11C314.967 156.034 314.032 155.099 314.032 153.956V151.152C314.032 150.009 314.967 149.074 316.11 149.074H318.914C320.057 149.074 320.992 150.009 320.992 151.152V153.956C320.992 155.099 320.057 156.034 318.914 156.034Z" fill="#9E6B93"></path>
<path d="M327.849 156.034H325.044C323.902 156.034 322.967 155.099 322.967 153.956V151.152C322.967 150.009 323.902 149.074 325.044 149.074H327.849C328.992 149.074 329.926 150.009 329.926 151.152V153.956C329.926 155.099 328.992 156.034 327.849 156.034Z" fill="#9E6B93"></path>
<path d="M336.782 156.034H333.977C332.834 156.034 331.9 155.099 331.9 153.956V151.152C331.9 150.009 332.834 149.074 333.977 149.074H336.782C337.924 149.074 338.859 150.009 338.859 151.152V153.956C338.859 155.099 337.924 156.034 336.782 156.034Z" fill="#9E6B93"></path>
<path d="M345.714 156.034H342.91C341.767 156.034 340.832 155.099 340.832 153.956V151.152C340.832 150.009 341.767 149.074 342.91 149.074H345.714C346.857 149.074 347.792 150.009 347.792 151.152V153.956C347.792 155.099 346.857 156.034 345.714 156.034Z" fill="#9E6B93"></path>
<path d="M489.369 81.1406H474.308V87.5807H489.369V81.1406Z" fill="#9E6B93"></path>
<path d="M539.228 81.1406H526.556V87.5807H539.228V81.1406Z" fill="#9E6B93"></path>
<path d="M554.913 81.1406H542.24V87.5807H554.913V81.1406Z" fill="#9E6B93"></path>
<path d="M570.597 81.1406H557.925V87.5807H570.597V81.1406Z" fill="#9E6B93"></path>
<path d="M586.178 81.1406H573.505V87.5807H586.178V81.1406Z" fill="#9E6B93"></path>
<path d="M588.256 96.8242H474.724V127.778H588.256V96.8242Z" fill="#9E6B93"></path>
<path d="M552.939 135.156H509.625C507.272 135.156 505.366 137.063 505.366 139.415C505.366 141.767 507.272 143.674 509.625 143.674H552.939C555.291 143.674 557.198 141.767 557.198 139.415C557.198 137.063 555.291 135.156 552.939 135.156Z" fill="#9E6B93"></path>
<path d="M670.21 42.7109H657.122V48.32H670.21V42.7109Z" fill="#9E6B93"></path>
<path d="M727.444 41.8789H716.329V43.7486H727.444V41.8789Z" fill="#9E6B93"></path>
<path d="M727.444 45.5117H716.329V47.3814H727.444V45.5117Z" fill="#9E6B93"></path>
<path d="M727.444 49.1484H716.329V51.0181H727.444V49.1484Z" fill="#9E6B93"></path>
<path d="M728.897 58.9102H654.11V88.6175H728.897V58.9102Z" fill="#9E6B93"></path>
<path d="M710.148 93.0859H672.443C670.406 93.0859 668.755 94.7369 668.755 96.7734C668.755 98.8099 670.406 100.461 672.443 100.461H710.148C712.185 100.461 713.836 98.8099 713.836 96.7734C713.836 94.7369 712.185 93.0859 710.148 93.0859Z" fill="#9E6B93"></path>
<path d="M718.199 154.16H666.055V160.496H718.199V154.16Z" fill="#9E6B93"></path>
<path d="M691.919 109.082H668.236V111.99H691.919V109.082Z" fill="#9E6B93"></path>
<path d="M703.76 115.832H668.236V118.74H703.76V115.832Z" fill="#9E6B93"></path>
<path d="M716.018 122.379H685.168V125.287H716.018V122.379Z" fill="#9E6B93"></path>
<path d="M681.843 122.379H668.236V125.287H681.843V122.379Z" fill="#9E6B93"></path>
<path d="M716.122 128.922H702.826V131.83H716.122V128.922Z" fill="#9E6B93"></path>
<path d="M699.398 128.922H685.168V131.83H699.398V128.922Z" fill="#9E6B93"></path>
<path d="M681.843 128.922H668.236V131.83H681.843V128.922Z" fill="#9E6B93"></path>
<path d="M674.365 142.947H671.561C670.418 142.947 669.587 142.012 669.587 140.973V138.169C669.587 137.026 670.522 136.195 671.561 136.195H674.365C675.508 136.195 676.339 137.13 676.339 138.169V140.973C676.443 142.012 675.508 142.947 674.365 142.947Z" fill="#9E6B93"></path>
<path d="M683.194 142.947H680.39C679.247 142.947 678.416 142.012 678.416 140.973V138.169C678.416 137.026 679.351 136.195 680.39 136.195H683.194C684.337 136.195 685.168 137.13 685.168 138.169V140.973C685.168 142.012 684.337 142.947 683.194 142.947Z" fill="#9E6B93"></path>
<path d="M692.023 142.947H689.219C688.076 142.947 687.245 142.012 687.245 140.973V138.169C687.245 137.026 688.18 136.195 689.219 136.195H692.023C693.166 136.195 693.997 137.13 693.997 138.169V140.973C693.997 142.012 693.062 142.947 692.023 142.947Z" fill="#9E6B93"></path>
<path d="M700.749 142.947H697.944C696.802 142.947 695.971 142.012 695.971 140.973V138.169C695.971 137.026 696.906 136.195 697.944 136.195H700.749C701.892 136.195 702.723 137.13 702.723 138.169V140.973C702.826 142.012 701.892 142.947 700.749 142.947Z" fill="#9E6B93"></path>
<path d="M709.578 142.947H706.774C705.631 142.947 704.8 142.012 704.8 140.973V138.169C704.8 137.026 705.735 136.195 706.774 136.195H709.578C710.721 136.195 711.552 137.13 711.552 138.169V140.973C711.655 142.012 710.721 142.947 709.578 142.947Z" fill="#9E6B93"></path>
<path opacity="0.7" d="M638.181 177.795V286.476C638.181 290.282 635.047 293.416 631.242 293.416H522.561C518.755 293.416 515.621 290.282 515.621 286.476V177.795C515.621 173.989 518.755 170.855 522.561 170.855H631.242C635.047 170.855 638.181 173.878 638.181 177.795Z" fill="#000000"></path>
<path opacity="0.26" d="M610.087 229.507C609.64 215.404 605.498 197.383 599.454 182.273C597.887 178.468 596.096 174.55 594.082 170.745H579.755C582.217 173.879 585.128 179.027 588.262 186.75C593.746 200.405 597.552 217.306 597.999 229.842C597.999 231.074 597.775 232.305 597.216 233.424C592.515 243.497 589.269 248.646 586.135 250.773C583.673 252.452 580.539 252.564 573.711 252.564C566.883 252.564 563.861 252.452 561.287 250.773C558.265 248.646 554.907 243.497 550.206 233.424C549.647 232.305 549.423 231.074 549.535 229.842C549.982 217.53 556.026 200.741 560.951 187.31L562.183 183.84C564.421 177.572 566.548 173.431 568.45 170.633H554.571C553.228 173.319 551.997 176.341 550.766 179.699L549.535 183.169C544.386 197.383 537.894 215.18 537.335 229.395C537.223 232.529 537.894 235.663 539.237 238.461C545.393 251.668 550.094 258.16 555.579 261.406C560.504 264.316 565.988 264.54 573.711 264.54C581.434 264.54 587.03 264.316 591.843 261.406C597.328 258.16 602.029 251.556 608.185 238.461C609.416 235.774 610.087 232.864 610.087 229.954C610.087 229.954 610.087 229.73 610.087 229.507Z" fill="#FFE7C2"></path>
<path opacity="0.26" d="M590.164 280.544C586.806 280.544 584.119 277.858 584.119 274.5C584.119 269.128 579.53 264.763 573.822 264.763C568.114 264.763 563.525 269.128 563.525 274.5C563.525 277.858 560.839 280.544 557.481 280.544C554.123 280.544 551.437 277.858 551.437 274.5C551.437 262.412 561.51 252.562 573.934 252.562C586.358 252.562 596.431 262.412 596.431 274.5C596.208 277.858 593.521 280.544 590.164 280.544Z" fill="#FFE7C2"></path>
<path opacity="0.26" d="M580.315 277.751V290.287C580.315 291.406 579.979 292.525 579.42 293.421H569.01C568.451 292.525 568.115 291.406 568.115 290.287V277.751C568.115 274.393 570.801 271.707 574.159 271.707C577.629 271.707 580.315 274.393 580.315 277.751Z" fill="#FFE7C2"></path>
<path opacity="0.26" d="M573.712 203.203C564.31 203.203 556.811 210.814 556.811 220.216C556.811 229.506 564.422 237.117 573.712 237.117C578.301 237.117 582.554 235.326 585.688 232.192C588.934 228.946 590.613 224.693 590.613 220.216C590.725 210.814 583.114 203.203 573.712 203.203ZM577.07 223.574C576.174 224.469 574.943 225.029 573.712 225.029C571.026 225.029 568.899 222.902 568.899 220.216C568.899 217.53 571.026 215.403 573.712 215.403C576.398 215.403 578.525 217.53 578.525 220.216C578.525 221.447 578.077 222.567 577.07 223.574Z" fill="#FFE7C2"></path>
<g opacity="0.6">
<path fill-rule="evenodd" clip-rule="evenodd" d="M706.092 445.809V369.868L706.979 317.637C711.43 310.264 710.114 315.002 704.824 318.235C704.225 318.441 703.637 318.677 703.063 318.942C699.988 320.388 697.637 322.287 695.919 324.548C691.036 321.021 684.435 320.208 678.557 322.92L676.658 323.825C672.86 325.543 669.876 328.527 668.158 332.325C664.179 331.149 659.929 331.511 656.131 333.229L654.232 334.134C652.604 334.857 651.157 335.852 649.891 337.027L635.242 305.287C632.891 300.223 628.821 296.787 623.667 295.521C619.326 294.436 606.576 284.324 602.145 286.313C597.714 288.303 594.453 291.542 592.464 295.521C590.113 300.313 597.895 316.41 600.156 321.474L631.082 388.39C626.651 387.034 621.497 385.678 615.89 384.412C602.597 381.608 592.74 387.034 588.943 399.332C587.496 404.035 588.038 409.099 590.48 413.349C593.012 417.599 597.262 420.673 602.145 421.668C609.198 423.115 618.874 425.195 624.752 426.642C642.476 431.073 657.216 442.647 664.088 457.568L664.36 458.201C665.083 459.648 666.259 460.823 667.796 461.456C668.519 461.728 669.243 461.818 669.966 461.818C670.87 461.818 671.775 461.637 672.589 461.276L706.092 445.809Z" fill="#FFE7C2"></path>
<path d="M755.511 415.428L742.851 393.726C744.75 376.454 738.361 345.216 726.696 320.529C722.17 310.787 714.534 316.017 706.979 317.637L706.092 369.868V445.809L752.708 424.29C754.336 423.567 755.511 422.211 756.054 420.492C756.596 418.774 756.416 416.966 755.511 415.428Z" fill="#FFE7C2"></path>
</g>
<path d="M705.317 343.893C702.616 343.893 700.02 342.335 698.877 339.738L692.125 324.988C691.502 323.638 690.36 322.495 688.905 321.976C687.451 321.457 685.893 321.457 684.543 322.184L682.361 323.223C681.011 323.846 679.868 325.092 679.349 326.546C678.83 328.105 678.83 329.663 679.453 331.117C681.115 334.648 679.557 338.907 676.025 340.569C672.494 342.231 668.235 340.673 666.573 337.141C664.288 332.259 664.184 326.858 666.054 321.768C667.923 316.679 671.663 312.628 676.441 310.446L678.622 309.408C688.594 304.837 700.539 309.2 705.109 319.172L711.861 333.921C713.523 337.453 711.965 341.712 708.433 343.374C707.291 343.581 706.356 343.893 705.317 343.893Z" fill="#000000"></path>
<path d="M679.661 355.736C676.96 355.736 674.363 354.178 673.221 351.581L666.469 336.832C665.846 335.481 664.703 334.339 663.249 333.819C661.795 333.3 660.237 333.3 658.886 334.027L656.705 335.066C653.797 336.416 652.446 340.052 653.797 342.96C655.459 346.492 653.901 350.751 650.369 352.412C646.837 354.074 642.579 352.516 640.917 348.985C636.346 339.013 640.813 326.756 650.784 322.186L652.966 321.147C657.848 318.862 663.249 318.654 668.235 320.524C673.221 322.393 677.272 326.029 679.453 330.911L686.205 345.661C687.867 349.192 686.309 353.451 682.777 355.113C681.634 355.529 680.596 355.736 679.661 355.736Z" fill="#000000"></path>
<path d="M668.753 468.745C667.922 468.745 667.091 468.642 666.26 468.33C664.495 467.707 663.04 466.356 662.313 464.591L662.002 463.863C654.107 446.725 637.28 433.533 616.817 428.339C610.066 426.677 598.951 424.288 590.849 422.626C585.24 421.484 580.254 417.952 577.45 413.07C574.645 408.188 573.918 402.371 575.684 396.97C580.151 382.843 591.369 376.611 606.638 379.831C612.974 381.181 618.895 382.739 624.088 384.401L588.564 307.536C585.864 301.719 585.967 295.591 588.668 290.086C590.953 285.515 595.004 281.672 599.99 279.387C605.08 277.102 610.585 276.478 615.571 277.725C621.492 279.179 626.166 283.23 628.867 288.943L660.444 357.395C662.106 360.926 660.548 365.185 657.016 366.847C653.484 368.509 649.225 366.951 647.563 363.419L615.986 294.968C613.39 289.255 607.261 291.748 606.015 292.371C604.768 292.89 598.951 296.006 601.548 301.615L642.578 390.53C644.032 393.75 643.409 397.489 640.916 400.086C638.423 402.683 634.683 403.514 631.359 402.06C630.217 401.54 619.622 397.282 603.833 393.854C595.731 392.088 591.576 394.269 589.395 401.333C588.876 402.891 589.084 404.553 589.915 406.007C590.746 407.461 592.2 408.5 593.966 408.811C602.171 410.473 613.493 412.862 620.557 414.628C642.889 420.237 661.69 434.156 672.285 452.334L751.02 415.978L739.179 395.723C738.348 394.373 738.036 392.711 738.244 391.049C740.841 373.703 735.231 349.189 722.455 321.974C719.339 315.223 714.353 316.885 712.899 317.508C709.783 318.962 706.978 322.598 709.471 328.103C711.133 331.634 709.575 335.893 706.043 337.555C702.512 339.217 698.253 337.659 696.591 334.127C692.021 324.26 694.098 310.548 706.978 304.628C716.431 300.265 729.207 302.758 735.335 315.95C748.735 344.411 754.863 370.69 752.682 390.53L767.224 415.459C768.263 417.225 768.47 419.302 767.847 421.172C767.224 423.042 765.874 424.704 764.004 425.535L671.662 468.122C670.727 468.538 669.792 468.745 668.753 468.745Z" fill="#000000"></path>
<path d="M689.839 513.722C687.138 513.722 684.541 512.164 683.399 509.568L670.622 481.938C669.791 480.276 669.791 478.302 670.415 476.536C671.038 474.77 672.388 473.316 674.154 472.589L767.119 429.69C770.651 428.028 774.91 429.586 776.572 433.118L789.348 460.748C790.179 462.41 790.179 464.383 789.556 466.149C788.933 467.915 787.582 469.369 785.816 470.096L692.851 512.995C691.812 513.515 690.774 513.722 689.839 513.722ZM686.515 482.353L693.37 497.103L773.456 460.124L766.6 445.375L686.515 482.353Z" fill="#000000"></path>
<path opacity="0.7" d="M554.187 555.108H493.318C490.929 555.108 488.955 553.135 488.955 550.745C488.955 548.356 490.929 546.383 493.318 546.383H554.083C556.472 546.383 558.446 548.356 558.446 550.745C558.446 553.238 556.472 555.108 554.187 555.108Z" fill="#000000"></path>
<path opacity="0.7" d="M473.063 555.108H433.072C430.683 555.108 428.71 553.135 428.71 550.745C428.71 548.356 430.683 546.383 433.072 546.383H473.063C475.452 546.383 477.425 548.356 477.425 550.745C477.322 553.238 475.452 555.108 473.063 555.108Z" fill="#000000"></path>
<path opacity="0.7" d="M412.712 555.108H380.304C377.915 555.108 375.942 553.135 375.942 550.745C375.942 548.356 377.915 546.383 380.304 546.383H412.712C415.101 546.383 417.075 548.356 417.075 550.745C417.075 553.238 415.101 555.108 412.712 555.108Z" fill="#000000"></path>
<path opacity="0.7" d="M707.189 574.948H646.423C644.034 574.948 642.061 572.974 642.061 570.585C642.061 568.196 644.034 566.223 646.423 566.223H707.189C709.578 566.223 711.551 568.196 711.551 570.585C711.447 573.078 709.474 574.948 707.189 574.948Z" fill="#000000"></path>
<path opacity="0.7" d="M626.065 574.948H586.074C583.685 574.948 581.712 572.974 581.712 570.585C581.712 568.196 583.685 566.223 586.074 566.223H626.065C628.454 566.223 630.428 568.196 630.428 570.585C630.324 573.078 628.454 574.948 626.065 574.948Z" fill="#000000"></path>
<path opacity="0.7" d="M565.717 574.948H533.309C530.92 574.948 528.946 572.974 528.946 570.585C528.946 568.196 530.92 566.223 533.309 566.223H565.717C568.106 566.223 570.079 568.196 570.079 570.585C570.079 573.078 568.106 574.948 565.717 574.948Z" fill="#000000"></path>
<path d="M285.156 432.641C283.598 432.641 281.936 432.226 280.482 431.499L278.508 430.46C276.223 429.214 273.419 429.214 271.03 430.46L269.056 431.499C265.628 433.265 261.577 432.953 258.461 430.772C255.345 428.59 253.787 424.747 254.41 420.904L254.826 418.723C255.241 416.126 254.41 413.425 252.54 411.659L250.878 410.101C248.074 407.401 247.139 403.453 248.282 399.714C249.528 396.079 252.644 393.378 256.384 392.858L258.565 392.547C261.162 392.131 263.447 390.573 264.59 388.184L265.628 386.211C267.29 382.783 270.822 380.602 274.665 380.602C278.508 380.602 282.04 382.783 283.702 386.211L284.741 388.184C285.883 390.573 288.168 392.235 290.765 392.547L292.947 392.858C296.79 393.378 299.906 396.079 301.049 399.714C302.295 403.35 301.256 407.401 298.452 410.101L296.79 411.659C294.92 413.529 294.089 416.126 294.505 418.723L294.92 420.904C295.543 424.747 293.985 428.487 290.869 430.772C289.311 432.018 287.338 432.641 285.156 432.641ZM274.769 427.448C276.431 427.448 277.989 427.863 279.443 428.59L281.417 429.629C284.221 431.083 287.338 430.876 289.83 429.006C292.323 427.136 293.57 424.228 293.05 421.216L292.635 419.034C292.116 415.71 293.154 412.386 295.543 410.101L297.205 408.543C299.387 406.362 300.218 403.246 299.283 400.337C298.348 397.325 295.855 395.351 292.843 394.936L290.661 394.624C287.338 394.105 284.533 392.131 283.079 389.119L282.04 387.146C280.69 384.341 277.989 382.679 274.873 382.679C271.757 382.679 269.056 384.341 267.706 387.146L266.667 389.119C265.213 392.131 262.408 394.209 259.084 394.624L256.903 394.936C253.787 395.351 251.398 397.429 250.463 400.337C249.528 403.35 250.255 406.362 252.54 408.543L254.202 410.101C256.591 412.386 257.63 415.71 257.111 419.034L256.695 421.216C256.176 424.332 257.318 427.24 259.915 429.006C262.408 430.876 265.628 431.083 268.329 429.629L270.302 428.59C271.549 427.863 273.211 427.448 274.769 427.448Z" fill="#000000"></path>
<path d="M485.992 252.731C486.128 253.002 486.128 253.41 486.128 253.818C486.128 254.225 486.128 254.633 486.128 254.904C486.128 255.855 485.992 256.67 485.856 257.485C485.72 258.3 485.313 258.979 484.905 259.659C484.498 260.202 483.818 260.745 483.139 261.153C482.46 261.56 481.509 261.696 480.287 261.696C479.2 261.696 478.113 261.425 477.162 261.017C476.075 260.61 474.853 259.93 473.359 258.979L456.922 249.471C455.564 247.705 454.884 245.395 454.884 242.543C454.884 240.369 455.156 238.739 455.835 237.517C456.379 236.294 457.33 235.479 458.552 234.8L479.607 222.574C482.053 223.253 483.818 224.204 484.633 225.291C485.584 226.378 485.992 227.736 485.992 228.959C485.992 230.725 485.584 232.083 484.633 233.17C483.683 234.121 482.46 235.072 480.694 236.022L467.246 242.814L485.992 252.731Z" fill="#FFE7C2"></path>
<path d="M497.945 231.813C497.809 231.541 497.809 231.134 497.809 230.726C497.809 230.319 497.809 229.911 497.809 229.64C497.809 228.689 497.945 227.874 498.08 227.059C498.216 226.244 498.624 225.564 499.031 224.885C499.439 224.342 500.118 223.799 500.797 223.391C501.476 222.984 502.427 222.848 503.65 222.848C504.737 222.848 505.823 223.119 506.774 223.527C507.861 223.934 509.083 224.614 510.578 225.564L527.014 235.073C528.373 236.839 529.052 239.149 529.052 242.001C529.052 244.175 528.78 245.805 528.101 247.027C527.558 248.25 526.607 249.065 525.384 249.744L504.329 261.97C501.884 261.291 500.118 260.34 499.303 259.253C498.352 258.166 497.945 256.808 497.945 255.585C497.945 253.819 498.352 252.461 499.303 251.374C500.254 250.423 501.476 249.472 503.242 248.522L516.691 241.729L497.945 231.813Z" fill="#FFE7C2"></path>
<g opacity="0.6">
<path d="M576.845 245.179C560.839 245.179 554.795 243.948 543.603 219.771C542.371 217.085 541.812 214.175 541.924 211.265C542.371 197.162 548.863 179.589 554.012 165.375L555.243 161.905C561.287 145.116 568.674 136.609 576.957 136.609C595.985 136.609 611.095 184.962 611.99 211.265C612.102 214.175 611.542 217.085 610.311 219.771C598.895 243.948 592.851 245.179 576.845 245.179ZM576.845 146.235C574.718 146.235 569.57 150.264 564.085 165.263L562.854 168.732C562.795 168.896 562.735 169.059 562.676 169.223C557.782 182.679 551.768 199.216 551.326 211.601C551.326 213.056 551.549 214.399 552.221 215.742C561.511 235.553 563.861 235.553 576.845 235.553C589.829 235.553 592.179 235.553 601.469 215.742C602.029 214.399 602.364 213.056 602.364 211.601C601.917 198.953 598.111 181.828 592.515 168.061C586.471 153.063 580.203 146.235 576.845 146.235Z" fill="#9E6B93"></path>
<path d="M576.845 146.235C574.718 146.235 569.57 150.264 564.085 165.263L562.854 168.732L562.676 169.223C557.782 182.679 551.768 199.216 551.326 211.601C551.326 213.056 551.549 214.399 552.221 215.742C561.511 235.553 563.861 235.553 576.845 235.553C589.829 235.553 592.179 235.553 601.469 215.742C602.029 214.399 602.364 213.056 602.364 211.601C601.917 198.953 598.111 181.828 592.515 168.061C586.471 153.063 580.203 146.235 576.845 146.235Z" fill="#9E6B93"></path>
</g>
<path d="M576.845 245.179C560.839 245.179 554.795 243.948 543.603 219.771C542.371 217.085 541.812 214.175 541.924 211.265C542.371 197.162 548.863 179.589 554.012 165.375L555.243 161.905C561.287 145.116 568.674 136.609 576.957 136.609C595.985 136.609 611.095 184.962 611.99 211.265C612.102 214.175 611.542 217.085 610.311 219.771C598.895 243.948 592.851 245.179 576.845 245.179ZM576.845 146.235C574.718 146.235 569.57 150.264 564.085 165.263L562.854 168.732C557.929 182.276 551.773 199.065 551.326 211.601C551.326 213.056 551.549 214.399 552.221 215.742C561.511 235.553 563.861 235.553 576.845 235.553C589.829 235.553 592.179 235.553 601.469 215.742C602.029 214.399 602.364 213.056 602.364 211.601C601.917 198.953 598.111 181.828 592.515 168.061C586.471 153.063 580.203 146.235 576.845 146.235Z" fill="#FFE7C2"></path>
<path d="M593.299 260.958C590.613 260.958 588.486 258.832 588.486 256.145C588.486 250.101 583.225 245.065 576.846 245.065C570.466 245.065 565.205 249.989 565.205 256.145C565.205 258.832 563.078 260.958 560.392 260.958C557.706 260.958 555.579 258.832 555.579 256.145C555.579 244.841 565.093 235.551 576.734 235.551C588.374 235.551 597.888 244.841 597.888 256.145C598.112 258.832 595.873 260.958 593.299 260.958Z" fill="#FFE7C2"></path>
<path d="M577.405 276.849C574.719 276.849 572.592 274.722 572.592 272.036V259.5C572.592 256.814 574.719 254.688 577.405 254.688C580.092 254.688 582.218 256.814 582.218 259.5V272.036C582.218 274.722 580.092 276.849 577.405 276.849Z" fill="#FFE7C2"></path>
<path d="M576.844 217.531C568.226 217.531 561.175 210.48 561.175 201.861C561.175 193.243 568.226 186.191 576.844 186.191C585.463 186.191 592.514 193.243 592.514 201.861C592.514 210.48 585.463 217.531 576.844 217.531ZM576.844 195.705C573.487 195.705 570.688 198.503 570.688 201.861C570.688 205.219 573.487 208.017 576.844 208.017C580.202 208.017 583 205.219 583 201.861C583 198.503 580.202 195.705 576.844 195.705Z" fill="#FFE7C2"></path>
</svg>
