<svg width="600" height="450" viewBox="0 0 800 600" fill="none" xmlns="http://www.w3.org/2000/svg" data-reactroot="">
<path opacity="0.2" d="M742.955 137.932C742.955 246.825 490.802 520.085 381.909 520.085C273.016 520.085 29.7505 359.027 29.7505 250.134C29.7505 141.241 185.993 41.9097 301.725 24.3773C417.458 6.84491 742.955 29.0392 742.955 137.932Z" fill="#000000"></path>
<path d="M41.7124 338.714H289.445V366.487H41.7124V338.714Z" fill="#F5F8FF"></path>
<path d="M41.7124 383.224H289.445V410.997H41.7124V383.224Z" fill="#F5F8FF"></path>
<path d="M41.7124 427.733H289.445V455.506H41.7124V427.733Z" fill="#F5F8FF"></path>
<path d="M47.282 478.522H86.8906V518.131H47.282V478.522Z" fill="#F5F8FF"></path>
<path d="M111.996 478.522H151.605V518.131H111.996V478.522Z" fill="#F5F8FF"></path>
<path d="M176.71 478.522H216.319V518.131H176.71V478.522Z" fill="#F5F8FF"></path>
<path d="M241.424 478.522H281.033V518.131H241.424V478.522Z" fill="#F5F8FF"></path>
<path opacity="0.1" d="M281.033 177.224H761.277V204.997H281.033V177.224Z" fill="#FFE7C2"></path>
<path fill-rule="evenodd" clip-rule="evenodd" d="M443.828 355.385C443.968 355.132 444.286 355.04 444.539 355.18C505.712 388.973 555.865 392.005 603.974 387.931C618.288 386.719 632.396 384.881 646.569 383.034C656.249 381.773 665.959 380.508 675.786 379.436C699.969 376.797 724.773 375.339 751.302 378.035C751.589 378.065 751.798 378.321 751.769 378.609C751.74 378.896 751.483 379.105 751.196 379.076C724.77 376.39 700.048 377.841 675.9 380.476C666.124 381.542 656.428 382.805 646.75 384.066C632.549 385.915 618.386 387.76 604.062 388.973C555.811 393.06 505.436 390.015 444.033 356.096C443.78 355.956 443.688 355.638 443.828 355.385Z" fill="#000000"></path>
<path opacity="0.1" d="M513.544 230.103H761.277V257.876H513.544V230.103Z" fill="#FFE7C2"></path>
<path opacity="0.1" d="M475.33 282.981H761.277V310.754H475.33V282.981Z" fill="#FFE7C2"></path>
<path d="M82.0462 227.744C78.9465 236.311 95.1458 289.544 106.467 303.966C110.25 300.88 138.419 295.571 142.321 286.213C147.199 274.516 137.377 220.166 136.009 213.355C134.641 206.544 120.959 238.929 120.959 238.929C120.959 238.929 117.714 199.169 114.489 192.031C113.01 188.758 88.4569 210.026 82.0462 227.744Z" fill="#9E6B93"></path>
<path fill-rule="evenodd" clip-rule="evenodd" d="M84.7326 214.189C85.2385 214.095 85.7249 214.428 85.8189 214.934C87.3248 223.033 89.4916 231.721 92.202 241.481C92.3397 241.976 92.0494 242.49 91.5535 242.628C91.0577 242.765 90.5441 242.475 90.4064 241.979C87.6896 232.196 85.5069 223.449 83.9869 215.275C83.8928 214.769 84.2266 214.283 84.7326 214.189Z" fill="#FFE7C2"></path>
<path fill-rule="evenodd" clip-rule="evenodd" d="M92.0682 204.079C92.5751 203.991 93.0579 204.33 93.1467 204.837C94.1423 210.523 98.9892 230.934 100.274 236.008C100.401 236.507 100.099 237.014 99.5998 237.14C99.101 237.267 98.5942 236.965 98.4679 236.466C97.1845 231.398 92.3205 210.923 91.3111 205.158C91.2223 204.651 91.5613 204.168 92.0682 204.079Z" fill="#FFE7C2"></path>
<path fill-rule="evenodd" clip-rule="evenodd" d="M102.132 193.11C102.643 193.049 103.107 193.415 103.167 193.926C103.977 200.803 107.765 221.31 110.086 231.602C110.2 232.104 109.884 232.602 109.382 232.716C108.881 232.829 108.382 232.514 108.269 232.012C105.94 221.691 102.137 201.113 101.316 194.144C101.256 193.633 101.621 193.17 102.132 193.11Z" fill="#FFE7C2"></path>
<path d="M642.57 264.343C649.093 270.704 657.703 325.677 653.795 343.591C649.046 342.461 621.378 349.954 613.788 343.231C604.301 334.827 591.084 293.18 589.501 287.042C587.765 280.315 612.417 291.364 612.417 291.364C612.417 291.364 598.016 254.161 597.809 246.331C597.715 242.741 629.081 251.188 642.57 264.343Z" fill="#9E6B93"></path>
<path fill-rule="evenodd" clip-rule="evenodd" d="M634.246 253.312C633.75 253.448 633.458 253.961 633.593 254.457C635.766 262.402 637.601 271.167 639.413 281.132C639.505 281.639 639.99 281.974 640.496 281.882C641.003 281.79 641.339 281.305 641.246 280.799C639.43 270.809 637.584 261.985 635.391 253.965C635.255 253.469 634.743 253.177 634.246 253.312Z" fill="#FFE7C2"></path>
<path fill-rule="evenodd" clip-rule="evenodd" d="M623.239 247.409C622.744 247.55 622.457 248.065 622.598 248.56C624.179 254.112 628.708 274.596 629.762 279.723C629.866 280.227 630.359 280.552 630.863 280.448C631.367 280.345 631.691 279.852 631.588 279.348C630.535 274.228 625.993 253.678 624.39 248.05C624.249 247.555 623.734 247.268 623.239 247.409Z" fill="#FFE7C2"></path>
<path fill-rule="evenodd" clip-rule="evenodd" d="M609.401 241.919C608.915 242.088 608.657 242.618 608.825 243.105C611.092 249.648 616.617 269.757 619.011 280.032C619.127 280.533 619.628 280.844 620.129 280.728C620.631 280.611 620.942 280.11 620.825 279.609C618.425 269.304 612.883 249.125 610.586 242.495C610.418 242.008 609.887 241.751 609.401 241.919Z" fill="#FFE7C2"></path>
<path fill-rule="evenodd" clip-rule="evenodd" d="M258.192 391.818C306.371 413.12 355.559 415.224 372.378 412.636C414.991 406.08 446.05 411.522 474.34 416.478C478.67 417.236 482.935 417.983 487.166 418.674C515.613 423.32 549.659 427.189 607.179 419.422C607.276 417.233 607.299 414.725 607.224 411.888C606.682 391.381 601.353 362.644 593.552 332.704L669.29 312.969C677.581 344.787 684.684 380.346 685.464 409.818C685.843 424.156 684.878 440.722 679.402 455.507C673.506 471.428 659.859 490.483 634.069 494.572C557.95 506.64 512.103 502.05 474.551 495.918C469.376 495.073 464.538 494.242 459.948 493.454C432.213 488.694 413.549 485.49 384.279 489.993C351.882 494.977 287.623 490.406 226.543 463.4C163.713 435.621 100.056 381.966 80.6287 286.835L157.313 271.175C170.348 335.003 211.762 371.29 258.192 391.818Z" fill="#FFE7C2"></path>
<path d="M245.908 444.623L543.633 463.172C543.633 463.172 515.219 514.646 488.557 552.417C461.895 590.188 388.025 582.67 348.275 576.394C308.524 570.117 260.505 534.324 245.908 444.623Z" fill="#FFE7C2"></path>
<path fill-rule="evenodd" clip-rule="evenodd" d="M290.797 244.706C290.808 244.995 290.583 245.237 290.294 245.248C255.463 246.55 218.525 256.103 204.421 260.714L204.096 259.719C218.257 255.09 255.295 245.51 290.255 244.203C290.544 244.192 290.786 244.417 290.797 244.706Z" fill="#000000"></path>
<path fill-rule="evenodd" clip-rule="evenodd" d="M753.09 71.572C741.574 65.8436 727.764 62.7159 718.563 61.5957L718.69 60.5573C727.968 61.687 741.902 64.8385 753.555 70.6354C765.179 76.417 774.726 84.9335 774.822 96.8648C775.01 120.162 770.257 139.453 767.843 146.22L766.857 145.868C769.232 139.214 773.963 120.045 773.776 96.8732C773.685 85.5704 764.636 77.3156 753.09 71.572Z" fill="#000000"></path>
<path fill-rule="evenodd" clip-rule="evenodd" d="M182.491 23.6789C119.125 52.8697 77.1934 93.3892 64.1756 109.957L63.353 109.311C76.4722 92.6138 118.535 51.9897 182.053 22.7288L182.491 23.6789Z" fill="#000000"></path>
<path fill-rule="evenodd" clip-rule="evenodd" d="M394.469 526.147C442.662 529.929 481.699 524.908 533.774 502.686C536.289 501.612 539.215 502.13 541.179 504.033C486.151 528.157 442.761 535.654 402.267 533.51C361.842 531.37 324.126 519.604 312.704 513.58C311.426 512.906 310.937 511.324 311.611 510.047C312.285 508.769 313.866 508.28 315.144 508.954C325.735 514.54 354.594 524.036 394.469 526.147Z" fill="#9E6B93"></path>
<path fill-rule="evenodd" clip-rule="evenodd" d="M329.761 464.651C376.518 476.929 415.826 478.918 471.019 466.294C473.685 465.684 476.472 466.714 478.068 468.935C419.63 482.906 375.599 482.581 336.128 473.281C296.726 463.998 261.698 445.723 251.527 437.766C250.389 436.876 250.188 435.233 251.078 434.095C251.968 432.958 253.612 432.757 254.749 433.647C264.18 441.025 290.895 455.494 329.761 464.651Z" fill="#9E6B93"></path>
<path d="M559.611 439.956C559.611 443.58 556.672 446.518 553.048 446.518C549.424 446.518 547.536 444.702 547.536 441.078C547.536 437.454 548.242 432.823 551.866 432.823C555.49 432.823 559.611 436.332 559.611 439.956Z" fill="white" fill-opacity="0.39"></path>
<path d="M150.623 383.003C152.082 386.32 157.337 393.648 154.019 395.107C150.701 396.566 141.48 392.208 140.021 388.89C138.563 385.573 134.132 376.725 137.45 375.266C140.767 373.807 149.164 379.685 150.623 383.003Z" fill="white" fill-opacity="0.39"></path>
<path d="M333.431 543.533C333.431 547.158 330.493 548.46 326.869 548.46C323.245 548.46 320.307 547.158 320.307 543.533C320.307 539.909 323.245 536.971 326.869 536.971C330.493 536.971 333.431 539.909 333.431 543.533Z" fill="white" fill-opacity="0.39"></path>
<path d="M663.532 154.269C663.532 184.402 639.105 208.829 608.972 208.829C578.84 208.829 554.412 184.402 554.412 154.269C554.412 124.137 578.84 99.7092 608.972 99.7092C639.105 99.7092 663.532 124.137 663.532 154.269Z" fill="#FFE7C2"></path>
<path d="M130.929 110.932L192.31 88.0325L215.21 149.413L153.829 172.313L130.929 110.932Z" fill="#FFE7C2"></path>
<path d="M130.929 110.932L192.31 88.0323L215.21 149.413L153.829 172.313L130.929 110.932Z" fill="white" fill-opacity="0.28"></path>
<path d="M346.452 76.4469C346.452 57.9216 361.469 42.9039 379.995 42.9039H395.439C413.964 42.9039 428.982 57.9216 428.982 76.4469V91.8912C428.982 110.416 413.964 125.434 395.439 125.434H379.995C361.469 125.434 346.452 110.416 346.452 91.8912V76.4469Z" fill="#FFE7C2"></path>
<path d="M346.452 76.4469C346.452 57.9216 361.469 42.9039 379.995 42.9039H395.439C413.964 42.9039 428.982 57.9216 428.982 76.4469V91.8912C428.982 110.416 413.964 125.434 395.439 125.434H379.995C361.469 125.434 346.452 110.416 346.452 91.8912V76.4469Z" fill="black" fill-opacity="0.3"></path>
<path fill-rule="evenodd" clip-rule="evenodd" d="M386.421 88.2368C385.691 88.2204 384.953 88.2079 384.207 88.1992L384.25 84.4725C385.01 84.4813 385.761 84.4941 386.505 84.5107C387.257 84.5275 388.012 84.5489 388.772 84.5748L388.645 88.2996C387.9 88.2742 387.158 88.2533 386.421 88.2368ZM375.836 88.2526C374.344 88.287 372.825 88.3343 371.281 88.3945L371.136 84.6703C372.699 84.6094 374.237 84.5614 375.751 84.5266L375.836 88.2526ZM401.553 89.1359C399.973 88.9885 398.408 88.8578 396.858 88.7443L397.13 85.0273C398.705 85.1426 400.295 85.2754 401.9 85.4251L401.553 89.1359ZM362.87 88.8328C361.373 88.9293 359.857 89.0365 358.323 89.1541L358.038 85.438C359.587 85.3193 361.118 85.2111 362.63 85.1135L362.87 88.8328ZM349.95 89.8821C348.438 90.0284 346.911 90.184 345.368 90.3487L344.972 86.6427C346.527 86.4767 348.067 86.3199 349.591 86.1724L349.95 89.8821ZM414.306 90.6398C412.766 90.4225 411.238 90.2191 409.721 90.0296L410.183 86.3314C411.72 86.5233 413.268 86.7294 414.827 86.9493L414.306 90.6398ZM337.065 91.3057C335.532 91.495 333.985 91.6927 332.426 91.8987L331.938 88.2038C333.507 87.9965 335.064 87.7975 336.608 87.6068L337.065 91.3057ZM427.096 92.7092C425.591 92.4362 424.096 92.1747 422.61 91.925L423.227 88.2495C424.73 88.502 426.241 88.7663 427.761 89.0422L427.096 92.7092ZM324.201 93.0453C322.659 93.2713 321.106 93.5049 319.543 93.7459L318.974 90.0625C320.547 89.82 322.109 89.5851 323.661 89.3577L324.201 93.0453ZM439.904 95.263C438.363 94.9293 436.829 94.6064 435.304 94.2945L436.05 90.6431C437.59 90.9579 439.138 91.2837 440.692 91.6204L439.904 95.263ZM311.351 95.0624C309.826 95.3172 308.293 95.5787 306.752 95.8469L306.113 92.1751C307.662 91.9055 309.203 91.6426 310.737 91.3864L311.351 95.0624ZM452.447 98.1725C450.937 97.7995 449.432 97.4359 447.933 97.0818L448.79 93.4547C450.301 93.8117 451.818 94.1782 453.341 94.5541L452.447 98.1725ZM298.514 97.3299C297.004 97.6106 295.488 97.8975 293.965 98.1903L293.261 94.5304C294.791 94.2361 296.315 93.9479 297.833 93.6657L298.514 97.3299ZM285.698 99.8273C284.2 100.132 282.697 100.443 281.189 100.759L280.425 97.1112C281.939 96.7937 283.449 96.4817 284.954 96.1752L285.698 99.8273ZM465.011 101.448C463.532 101.043 462.057 100.645 460.587 100.256L461.541 96.6529C463.022 97.0451 464.507 97.4455 465.997 97.854L465.011 101.448ZM273.004 102.519C271.485 102.854 269.963 103.194 268.437 103.539L267.614 99.9037C269.147 99.5569 270.676 99.2154 272.202 98.8793L273.004 102.519ZM477.538 105.042C476.036 104.592 474.537 104.15 473.042 103.716L474.082 100.137C475.586 100.574 477.094 101.019 478.606 101.471L477.538 105.042ZM260.324 105.417C258.816 105.774 257.305 106.135 255.791 106.502L254.913 102.88C256.433 102.512 257.951 102.148 259.466 101.79L260.324 105.417ZM489.882 108.877C488.409 108.403 486.939 107.935 485.472 107.475L486.588 103.919C488.064 104.382 489.543 104.853 491.024 105.33L489.882 108.877ZM247.664 108.514C246.168 108.892 244.669 109.275 243.169 109.663L242.237 106.054C243.743 105.665 245.248 105.28 246.751 104.901L247.664 108.514ZM502.24 112.99C500.778 112.488 499.317 111.992 497.858 111.502L499.045 107.969C500.512 108.461 501.98 108.961 503.451 109.466L502.24 112.99ZM235.054 111.801C233.563 112.202 232.071 112.607 230.578 113.017L229.591 109.423C231.091 109.011 232.59 108.604 234.087 108.202L235.054 111.801ZM222.524 115.269C221.032 115.694 219.539 116.123 218.047 116.557L217.007 112.978C218.505 112.542 220.004 112.111 221.503 111.684L222.524 115.269ZM514.467 117.315C513.008 116.784 511.55 116.259 510.093 115.74L511.345 112.229C512.809 112.751 514.274 113.279 515.741 113.812L514.467 117.315ZM210.027 118.93C208.544 119.377 207.062 119.828 205.58 120.284L204.485 116.721C205.973 116.264 207.462 115.811 208.952 115.362L210.027 118.93ZM526.641 121.861C525.2 121.309 523.759 120.762 522.319 120.22L523.631 116.732C525.079 117.277 526.527 117.826 527.975 118.381L526.641 121.861ZM197.592 122.783C196.114 123.254 194.638 123.728 193.164 124.207L192.013 120.662C193.494 120.181 194.977 119.704 196.461 119.232L197.592 122.783ZM538.743 126.611C537.304 126.033 535.863 125.459 534.423 124.89L535.793 121.423C537.24 121.995 538.687 122.572 540.133 123.153L538.743 126.611ZM185.223 126.831C183.755 127.325 182.289 127.823 180.826 128.324L179.617 124.799C181.087 124.295 182.56 123.795 184.035 123.298L185.223 126.831ZM550.758 131.549C549.332 130.95 547.905 130.355 546.477 129.765L547.901 126.321C549.336 126.914 550.769 127.511 552.201 128.113L550.758 131.549ZM172.914 131.086C171.455 131.604 169.999 132.126 168.546 132.652L167.277 129.148C168.736 128.62 170.2 128.095 171.667 127.574L172.914 131.086ZM562.699 136.674C561.282 136.053 559.863 135.436 558.442 134.822L559.919 131.401C561.346 132.017 562.771 132.637 564.195 133.261L562.699 136.674ZM160.695 135.548C159.239 136.095 157.788 136.645 156.342 137.199L155.008 133.719C156.463 133.162 157.921 132.608 159.384 132.059L160.695 135.548ZM574.567 141.982C573.161 141.341 571.753 140.703 570.342 140.068L571.871 136.669C573.288 137.307 574.702 137.947 576.114 138.592L574.567 141.982ZM148.578 140.228C147.129 140.804 145.685 141.384 144.247 141.967L142.846 138.514C144.293 137.927 145.745 137.344 147.202 136.765L148.578 140.228ZM136.514 145.166C135.094 145.765 133.679 146.367 132.271 146.974L130.797 143.551C132.214 142.94 133.637 142.334 135.067 141.731L136.514 145.166ZM586.349 147.466C584.946 146.8 583.54 146.137 582.13 145.478L583.71 142.102C585.126 142.765 586.538 143.43 587.947 144.099L586.349 147.466ZM124.579 150.354C123.165 150.988 121.758 151.626 120.359 152.268L118.804 148.881C120.213 148.234 121.63 147.592 123.054 146.953L124.579 150.354ZM598.04 153.123C596.659 152.442 595.275 151.764 593.886 151.088L595.517 147.737C596.912 148.415 598.302 149.097 599.688 149.781L598.04 153.123ZM112.802 155.809C111.393 156.484 109.993 157.162 108.603 157.845L106.961 154.499C108.362 153.811 109.773 153.127 111.193 152.448L112.802 155.809ZM609.671 158.973C608.291 158.265 606.906 157.56 605.517 156.857L607.198 153.531C608.594 154.237 609.985 154.946 611.371 155.656L609.671 158.973ZM101.193 161.564C99.7965 162.281 98.4111 163.003 97.0372 163.727L95.298 160.431C96.6842 159.7 98.0817 158.972 99.4901 158.249L101.193 161.564ZM621.126 164.961C619.779 164.243 618.425 163.526 617.066 162.812L618.8 159.513C620.166 160.23 621.525 160.95 622.879 161.672L621.126 164.961ZM89.6987 167.697C88.3514 168.445 87.0167 169.196 85.6951 169.951L83.8464 166.715C85.1818 165.952 86.5299 165.193 87.8905 164.438L89.6987 167.697ZM632.605 171.202C631.258 170.455 629.903 169.709 628.542 168.964L630.33 165.694C631.698 166.442 633.059 167.192 634.413 167.943L632.605 171.202ZM78.4476 174.208C77.1317 175.004 75.8308 175.803 74.5453 176.606L72.5711 173.445C73.8723 172.632 75.1886 171.823 76.5196 171.019L78.4476 174.208ZM643.894 177.596C642.54 176.814 641.178 176.032 639.807 175.251L641.652 172.012C643.03 172.797 644.399 173.583 645.76 174.37L643.894 177.596ZM67.4941 181.151C66.2071 182.008 64.9382 182.869 63.688 183.734L61.5679 180.669C62.8366 179.791 64.1235 178.918 65.4282 178.049L67.4941 181.151ZM655.044 184.188C653.744 183.402 652.433 182.616 651.113 181.831L653.019 178.628C654.346 179.418 655.664 180.208 656.972 180.999L655.044 184.188ZM666.146 191.06C664.843 190.234 663.529 189.408 662.203 188.581L664.174 185.418C665.508 186.25 666.831 187.081 668.142 187.913L666.146 191.06ZM56.9111 188.597C55.6654 189.525 54.4418 190.457 53.2409 191.393L50.9495 188.454C52.1723 187.501 53.4174 186.552 54.6841 185.608L56.9111 188.597ZM676.991 198.119C675.695 197.253 674.384 196.385 673.059 195.517L675.102 192.399C676.436 193.274 677.757 194.148 679.062 195.021L676.991 198.119ZM46.805 196.635C45.6203 197.645 44.4628 198.659 43.3333 199.677L40.8381 196.909C41.9939 195.867 43.1771 194.831 44.3869 193.799L46.805 196.635ZM687.617 205.436C686.396 204.569 685.159 203.701 683.906 202.831L686.032 199.77C687.295 200.647 688.543 201.523 689.774 202.397L687.617 205.436ZM37.3424 205.381C36.2493 206.484 35.1899 207.59 34.1652 208.701L31.4262 206.173C32.4822 205.029 33.5724 203.89 34.6956 202.757L37.3424 205.381ZM698.139 213.172C696.933 212.252 695.707 211.329 694.46 210.403L696.682 207.411C697.941 208.346 699.181 209.279 700.4 210.209L698.139 213.172ZM28.7932 214.96C27.8375 216.164 26.9237 217.372 26.0529 218.584L23.0266 216.409C23.9333 215.147 24.8829 213.892 25.8738 212.643L28.7932 214.96ZM708.294 221.255C707.112 220.27 705.903 219.28 704.667 218.285L707.005 215.382C708.256 216.39 709.481 217.393 710.68 218.392L708.294 221.255ZM21.5875 225.481C20.8339 226.79 20.1318 228.102 19.4824 229.417L16.1407 227.766C16.8266 226.378 17.5662 224.996 18.3578 223.621L21.5875 225.481ZM717.984 229.789C716.848 228.725 715.676 227.654 714.467 226.575L716.949 223.795C718.179 224.892 719.373 225.984 720.532 227.068L717.984 229.789ZM122.152 233.1C122.376 232.357 122.593 231.611 122.806 230.863L126.391 231.88C126.174 232.647 125.95 233.411 125.722 234.172L122.152 233.1ZM727.022 238.945C725.985 237.792 724.894 236.627 723.753 235.448L726.43 232.855C727.601 234.064 728.722 235.262 729.792 236.45L727.022 238.945ZM16.3544 236.96C15.8734 238.394 15.4567 239.833 15.1057 241.274L11.4845 240.392C11.8611 238.845 12.3073 237.306 12.8207 235.775L16.3544 236.96ZM117.867 245.399C118.439 243.963 118.99 242.512 119.521 241.047L123.025 242.317C122.481 243.818 121.916 245.305 121.33 246.777L117.867 245.399ZM734.927 248.954C734.097 247.709 733.186 246.439 732.198 245.147L735.159 242.883C736.191 244.234 737.149 245.569 738.028 246.886L734.927 248.954ZM13.8479 249.222C13.7402 250.707 13.704 252.197 13.7412 253.69L10.0153 253.783C9.97509 252.167 10.0143 250.557 10.1306 248.952L13.8479 249.222ZM112.519 257.271C113.215 255.896 113.892 254.502 114.55 253.089L117.929 254.663C117.254 256.112 116.559 257.543 115.845 258.954L112.519 257.271ZM740.339 259.913C739.971 258.642 739.481 257.322 738.869 255.956L742.27 254.432C742.944 255.937 743.497 257.419 743.919 258.876L740.339 259.913ZM14.6382 261.656C14.9314 263.116 15.297 264.582 15.737 266.053L12.1663 267.121C11.6939 265.541 11.3003 263.964 10.9841 262.389L14.6382 261.656ZM106.099 268.583C106.923 267.286 107.729 265.963 108.518 264.615L111.735 266.499C110.923 267.884 110.093 269.245 109.246 270.58L106.099 268.583ZM739.811 271.297C740.423 270.077 740.824 268.788 741.024 267.427L744.711 267.967C744.456 269.712 743.937 271.384 743.142 272.968L739.811 271.297ZM18.615 273.551C19.2477 274.901 19.9449 276.255 20.7083 277.613L17.4593 279.439C16.6525 278.003 15.9132 276.568 15.2405 275.134L18.615 273.551ZM98.5592 279.147C99.5161 277.957 100.458 276.733 101.385 275.476L104.385 277.688C103.428 278.986 102.454 280.251 101.464 281.483L98.5592 279.147ZM731.379 279.05C732.69 278.367 733.853 277.646 734.877 276.892L737.087 279.893C735.892 280.773 734.563 281.593 733.101 282.355L731.379 279.05ZM605.75 278.734C606.57 278.859 607.387 278.982 608.199 279.104L607.646 282.79C606.831 282.668 606.012 282.544 605.188 282.418L605.75 278.734ZM616.806 280.354C618.37 280.574 619.918 280.787 621.449 280.993L620.95 284.687C619.412 284.48 617.858 284.266 616.288 284.045L616.806 280.354ZM719.529 283.179C721.1 282.816 722.576 282.423 723.962 282.001L725.048 285.566C723.574 286.015 722.015 286.43 720.369 286.81L719.529 283.179ZM629.557 282.046C631.029 282.229 632.485 282.406 633.925 282.577L633.486 286.278C632.039 286.106 630.576 285.929 629.096 285.744L629.557 282.046ZM642.451 283.533C644.052 283.702 645.631 283.863 647.189 284.015L646.827 287.724C645.259 287.571 643.67 287.409 642.06 287.239L642.451 283.533ZM25.0979 284.458C25.5572 285.095 26.0314 285.733 26.5205 286.371C27.0014 286.999 27.4848 287.608 27.9707 288.2L25.0916 290.566C24.578 289.941 24.068 289.299 23.5618 288.638C23.0511 287.971 22.5555 287.304 22.0748 286.638L25.0979 284.458ZM706.993 285.206C708.578 285.039 710.103 284.85 711.569 284.641L712.095 288.33C710.582 288.546 709.012 288.74 707.385 288.913L706.993 285.206ZM655.393 284.756C656.874 284.879 658.334 284.993 659.773 285.099L659.498 288.816C658.048 288.709 656.578 288.594 655.086 288.471L655.393 284.756ZM89.8187 288.663C90.9207 287.623 92.0108 286.537 93.0873 285.408L95.7851 287.979C94.6648 289.154 93.5281 290.287 92.3767 291.373L89.8187 288.663ZM668.311 285.649C669.913 285.736 671.486 285.812 673.031 285.878L672.874 289.601C671.314 289.535 669.725 289.459 668.108 289.371L668.311 285.649ZM694.234 286.052C695.756 286.003 697.237 285.939 698.679 285.861L698.881 289.582C697.411 289.662 695.902 289.727 694.354 289.777L694.234 286.052ZM681.092 286.125C682.634 286.153 684.145 286.169 685.622 286.173L685.612 289.9C684.114 289.896 682.585 289.88 681.024 289.851L681.092 286.125ZM79.7615 296.638C81.0206 295.823 82.2719 294.946 83.5133 294.009L85.7581 296.984C84.4486 297.972 83.1242 298.901 81.7869 299.767L79.7615 296.638ZM33.5922 294.15C34.7471 295.201 35.9113 296.161 37.0829 297.033L34.8579 300.023C33.5841 299.075 32.3256 298.037 31.0839 296.907L33.5922 294.15ZM68.3658 302.199C69.7723 301.737 71.1776 301.191 72.5791 300.565L74.0988 303.969C72.5865 304.644 71.0622 305.236 69.5287 305.74L68.3658 302.199ZM44.0107 301.16C45.3933 301.789 46.783 302.311 48.1773 302.73L47.1047 306.299C45.547 305.831 44.0001 305.25 42.467 304.552L44.0107 301.16ZM56.0449 304.037C57.5235 304.091 59.0072 304.042 60.4934 303.894L60.864 307.602C59.2137 307.767 57.5602 307.822 55.9073 307.761L56.0449 304.037Z" fill="#000000"></path>
<path d="M161.838 125.939L175.338 120.906L180.371 134.406L166.871 139.439L161.838 125.939Z" fill="#9E6B93"></path>
<path d="M380.513 78.8427H394.921V93.2506H380.513V78.8427Z" fill="#9E6B93"></path>
<path d="M606.335 144.428L618.813 151.632L611.609 164.11L599.131 156.906L606.335 144.428Z" fill="#9E6B93"></path>
<path d="M136.201 230.685C136.201 236.572 131.429 241.344 125.543 241.344C119.656 241.344 114.885 236.572 114.885 230.685C114.885 224.799 119.656 220.027 125.543 220.027C131.429 220.027 136.201 224.799 136.201 230.685Z" fill="#FFE7C2"></path>
<path d="M614.858 277.73C614.858 283.616 610.086 288.388 604.2 288.388C598.314 288.388 593.542 283.616 593.542 277.73C593.542 271.844 598.314 267.072 604.2 267.072C610.086 267.072 614.858 271.844 614.858 277.73Z" fill="#FFE7C2"></path>
<path fill-rule="evenodd" clip-rule="evenodd" d="M417.986 401.648C418.275 401.648 418.509 401.883 418.509 402.171C418.509 412.638 417.203 424.763 412.368 434.689C407.517 444.647 399.113 452.388 384.995 454.005C376.076 455.027 367.058 451.311 359.563 443.026C352.073 434.746 346.091 421.895 343.181 404.577C343.133 404.293 343.325 404.023 343.61 403.975C343.895 403.927 344.164 404.119 344.212 404.404C347.1 421.586 353.018 434.232 360.339 442.324C367.654 450.411 376.356 453.942 384.876 452.966C398.59 451.395 406.711 443.915 411.427 434.231C416.159 424.516 417.463 412.579 417.463 402.171C417.463 401.883 417.697 401.648 417.986 401.648Z" fill="#000000"></path>
<path d="M409.717 412.51C409.852 413.458 409.922 414.545 409.922 415.787C409.922 432.672 397.916 446.361 383.105 446.361C368.294 446.361 356.041 432.672 356.041 415.787C356.122 415.787 356.204 415.784 356.289 415.779C356.448 415.212 365.317 383.277 361.676 352.4C377.357 342.968 401.26 332.698 404.642 363.032C408.134 394.354 409.316 407.32 409.717 412.51Z" fill="#9E6B93"></path>
<path fill-rule="evenodd" clip-rule="evenodd" d="M409.922 415.787C409.922 432.672 397.916 446.361 383.105 446.361C368.294 446.361 356.041 432.672 356.041 415.787C356.122 415.787 356.204 415.784 356.289 415.779C356.448 415.211 365.318 383.277 361.677 352.4C377.357 342.968 401.261 332.698 404.642 363.032C408.135 394.361 409.317 407.326 409.718 412.514C409.852 413.458 409.922 414.54 409.922 415.776C409.922 415.783 409.922 415.787 409.922 415.787H409.922Z" fill="black" fill-opacity="0.2"></path>
<path d="M342.389 330.301C345.111 339.674 343.452 348.395 338.683 349.779C333.915 351.164 327.843 344.689 325.121 335.316C322.399 325.943 324.059 317.223 328.827 315.838C333.596 314.453 339.668 320.929 342.389 330.301Z" fill="#9E6B93"></path>
<path d="M342.389 330.301C345.111 339.674 343.452 348.395 338.683 349.779C333.915 351.164 327.843 344.689 325.121 335.316C322.399 325.943 324.059 317.223 328.827 315.838C333.596 314.453 339.668 320.929 342.389 330.301Z" fill="black" fill-opacity="0.26"></path>
<path d="M422.715 330.301C419.993 339.674 421.652 348.395 426.421 349.779C431.189 351.164 437.261 344.689 439.983 335.316C442.705 325.943 441.045 317.223 436.277 315.838C431.508 314.453 425.436 320.929 422.715 330.301Z" fill="#9E6B93"></path>
<path d="M422.715 330.301C419.993 339.674 421.652 348.395 426.421 349.779C431.189 351.164 437.261 344.689 439.983 335.316C442.705 325.943 441.045 317.223 436.277 315.838C431.508 314.453 425.436 320.929 422.715 330.301Z" fill="black" fill-opacity="0.26"></path>
<path d="M432.091 320.593C432.091 347.03 410.291 386.61 382.507 389.103C355.437 380.91 330.859 343.232 330.859 316.795C330.859 290.358 356.103 294.471 380.379 294.471C392.286 294.471 420.129 287.114 429.25 291.97C438.723 297.014 432.091 307.124 432.091 320.593Z" fill="#9E6B93"></path>
<path d="M431.17 228.462C428.492 243.929 409.772 246.77 394.305 244.092C378.838 241.414 363.638 232.7 366.316 217.233C368.994 201.766 393.173 194.816 408.64 197.494C424.107 200.172 433.848 212.995 431.17 228.462Z" fill="#000000"></path>
<path d="M440.618 287.621C440.618 300 439.943 314.624 435.194 316.964C429.96 319.542 431.746 312.442 411.353 294.402C367.389 324.925 340.83 332.156 329.065 324.244C317.026 306.883 320.946 300.096 320.946 287.621C320.946 261.597 355.506 240.5 381.53 240.5C407.554 240.5 440.618 261.597 440.618 287.621Z" fill="#000000"></path>
<path d="M363.446 235.559C365.151 232.997 368.395 231.943 371.281 233.014L378.642 235.745C379.939 236.226 381.293 236.543 382.669 236.688L410.204 239.585L420.047 240.62C427.059 241.358 429.917 250.027 424.719 254.79C422.231 257.069 418.601 257.588 415.575 256.097L405.432 251.1C403.127 249.964 400.639 249.245 398.084 248.976L368.277 245.841C363.315 245.318 360.68 239.713 363.446 235.559Z" fill="#9E6B93"></path>
<path fill-rule="evenodd" clip-rule="evenodd" d="M375.79 364.418C376.21 364.029 376.866 364.054 377.256 364.474C379.17 366.538 381.878 367.404 384.704 367.247C387.539 367.091 390.423 365.903 392.567 363.955C392.991 363.57 393.647 363.602 394.032 364.026C394.417 364.45 394.386 365.106 393.962 365.491C391.462 367.762 388.125 369.136 384.819 369.319C381.503 369.502 378.148 368.487 375.735 365.884C375.345 365.464 375.37 364.808 375.79 364.418Z" fill="#9E6B93"></path>
<path fill-rule="evenodd" clip-rule="evenodd" d="M375.79 364.418C376.21 364.029 376.866 364.054 377.256 364.474C379.17 366.538 381.878 367.404 384.704 367.247C387.539 367.091 390.423 365.903 392.567 363.955C392.991 363.57 393.647 363.602 394.032 364.026C394.417 364.45 394.386 365.106 393.962 365.491C391.462 367.762 388.125 369.136 384.819 369.319C381.503 369.502 378.148 368.487 375.735 365.884C375.345 365.464 375.37 364.808 375.79 364.418Z" fill="black" fill-opacity="0.26"></path>
<path d="M356.592 308.397H366.733L343.818 337.7L337.755 330.712L356.592 308.397Z" fill="white" fill-opacity="0.392"></path>
<path d="M370.74 317.765L373.412 320.539L354 344.475L350.292 341.81L370.74 317.765Z" fill="white" fill-opacity="0.392"></path>
<path d="M410.134 307.02L418.974 309.746L396.623 337.498L391.298 329.335L410.134 307.02Z" fill="white" fill-opacity="0.392"></path>
<path d="M424.283 316.387L426.954 319.162L407.543 343.097L403.834 340.433L424.283 316.387Z" fill="white" fill-opacity="0.392"></path>
<path fill-rule="evenodd" clip-rule="evenodd" d="M356.038 341.216C364.962 341.216 372.196 333.982 372.196 325.058C372.196 316.135 364.962 308.9 356.038 308.9C347.114 308.9 339.88 316.135 339.88 325.058C339.88 333.982 347.114 341.216 356.038 341.216ZM356.038 345.365C367.254 345.365 376.345 336.274 376.345 325.058C376.345 313.843 367.254 304.751 356.038 304.751C344.823 304.751 335.731 313.843 335.731 325.058C335.731 336.274 344.823 345.365 356.038 345.365Z" fill="#EFF4FF"></path>
<path fill-rule="evenodd" clip-rule="evenodd" d="M409.168 341.216C418.091 341.216 425.326 333.982 425.326 325.058C425.326 316.135 418.091 308.9 409.168 308.9C400.244 308.9 393.01 316.135 393.01 325.058C393.01 333.982 400.244 341.216 409.168 341.216ZM409.168 345.365C420.383 345.365 429.475 336.274 429.475 325.058C429.475 313.843 420.383 304.751 409.168 304.751C397.952 304.751 388.861 313.843 388.861 325.058C388.861 336.274 397.952 345.365 409.168 345.365Z" fill="#EFF4FF"></path>
<path d="M391.02 345.515L382.825 323.281L375.846 345.515C375.846 345.515 378.824 348.971 383.555 348.842C388.286 348.714 391.02 345.515 391.02 345.515Z" fill="#9E6B93"></path>
<path d="M391.02 345.515L382.825 323.281L375.846 345.515C375.846 345.515 378.824 348.971 383.555 348.842C388.286 348.713 391.02 345.515 391.02 345.515Z" fill="black" fill-opacity="0.26"></path>
<path fill-rule="evenodd" clip-rule="evenodd" d="M354.92 297.843C338.25 300.143 332.651 310.185 331.881 314.601C331.783 315.165 331.245 315.543 330.681 315.445C330.117 315.346 329.739 314.809 329.837 314.245C330.771 308.888 337.126 298.204 354.636 295.788C355.204 295.709 355.727 296.106 355.806 296.673C355.884 297.241 355.487 297.764 354.92 297.843Z" fill="black" fill-opacity="0.58"></path>
<path fill-rule="evenodd" clip-rule="evenodd" d="M406.982 288.624C423.692 290.613 429.478 300.548 430.33 304.949C430.439 305.511 430.984 305.879 431.546 305.77C432.109 305.661 432.476 305.117 432.367 304.554C431.333 299.216 424.78 288.653 407.227 286.564C406.658 286.497 406.142 286.903 406.075 287.472C406.007 288.041 406.413 288.557 406.982 288.624Z" fill="black" fill-opacity="0.58"></path>
</svg>
