<svg width="600" height="450" viewBox="0 0 800 600" fill="none" xmlns="http://www.w3.org/2000/svg" data-reactroot="">
<path d="M713.137 474.151C713.137 471.415 723.399 472.659 734.656 466.004C748.775 457.607 748.277 446.35 761.96 441.623C766.936 439.882 774.15 438.949 775.767 441.623C777.82 445.044 770.045 453.129 765.319 458.043C755.429 468.367 744.732 479.438 729.743 479.625C721.471 479.811 713.137 476.639 713.137 474.151Z" fill="#FFE7C2"></path>
<path d="M70.2323 280.066C59.4704 290.461 52.2549 302.201 48.7084 314.92C42.349 337.789 49.9313 356.256 63.7507 389.642L64.6067 391.599C86.7422 445.164 99.4609 475.86 108.755 502.276C108.388 502.398 108.144 502.521 107.777 502.643C98.3602 476.349 85.7638 445.653 63.6284 392.088L62.7723 390.131C48.953 356.378 41.3707 337.911 47.73 314.675C51.2766 301.834 58.6143 289.972 69.4985 279.332C69.7431 279.087 69.9877 279.087 70.2323 279.332C70.4769 279.576 70.4769 279.943 70.2323 280.066Z" fill="#FFE7C2"></path>
<path d="M46.0184 339.137C46.0184 339.137 44.5509 319.692 35.6234 309.664C32.1991 305.751 22.9047 296.701 18.7466 299.024C13.8548 301.837 15.8116 320.304 26.3289 331.066C32.3214 337.058 46.0184 339.137 46.0184 339.137Z" fill="#FFE7C2"></path>
<path d="M61.6685 430.982C61.6685 430.982 60.8124 419.241 55.4314 413.249C53.3524 410.925 47.7268 405.422 45.2809 406.89C42.3458 408.602 43.4465 419.731 49.8058 426.212C53.3524 429.759 61.6685 430.982 61.6685 430.982Z" fill="#FFE7C2"></path>
<path d="M58.0046 394.535C58.0046 394.535 54.5803 388.543 50.3 386.586C48.5878 385.852 44.3075 384.262 43.3291 385.73C42.2285 387.32 45.5305 392.945 50.5446 394.902C53.3573 396.003 58.0046 394.535 58.0046 394.535Z" fill="#FFE7C2"></path>
<path d="M68.8839 436.97C68.8839 436.97 68.1501 425.23 72.675 418.504C74.3871 415.813 79.1566 409.698 81.8471 410.799C85.0268 412.022 85.3937 423.273 80.0127 430.489C76.833 434.647 68.8839 436.97 68.8839 436.97Z" fill="#FFE7C2"></path>
<path d="M54.6998 367.998C56.5342 365.674 49.8079 355.524 40.0243 350.021C31.9529 345.373 17.6443 341.582 12.2633 348.186C9.20596 351.977 9.20596 359.193 12.5079 362.495C16.4214 366.164 21.8024 362.006 33.2981 362.862C46.506 363.718 53.1099 370.077 54.6998 367.998Z" fill="#FFE7C2"></path>
<path d="M88.8399 477.33C88.8399 474.65 78.789 475.868 67.7635 469.35C53.9359 461.127 54.4232 450.101 41.022 445.472C36.1488 443.766 29.0827 442.852 27.4989 445.472C25.4887 448.822 33.1031 456.741 37.7326 461.553C47.418 471.665 57.8953 482.508 72.5757 482.69C80.6774 482.873 88.8399 479.767 88.8399 477.33Z" fill="#FFE7C2"></path>
<path d="M55.3134 297.552C55.3134 297.552 50.0547 290.949 50.0547 284.834C50.0547 280.064 54.2127 274.316 54.2127 274.316C54.2127 274.316 58.1262 279.697 58.7376 283.611C59.716 289.848 55.3134 297.552 55.3134 297.552Z" fill="#FFE7C2"></path>
<path d="M48.707 312.842C48.707 312.842 57.1454 313.943 62.2818 310.763C66.3175 308.195 69.1303 301.713 69.1303 301.713C69.1303 301.713 62.5264 301.102 58.8575 302.692C52.9874 305.138 48.707 312.842 48.707 312.842Z" fill="#FFE7C2"></path>
<path d="M66.4414 282.757C66.4414 282.757 74.8798 283.369 79.8939 279.822C83.8073 277.009 86.2532 270.405 86.2532 270.405C86.2532 270.405 79.6493 270.161 76.1027 271.995C70.2326 274.808 66.4414 282.757 66.4414 282.757Z" fill="#FFE7C2"></path>
<path d="M66.4414 282.757C66.4414 282.757 72.923 277.254 74.0237 271.262C74.8797 266.492 71.9447 260.133 71.9447 260.133C71.9447 260.133 67.0528 264.658 65.8299 268.327C63.6286 274.319 66.4414 282.757 66.4414 282.757Z" fill="#FFE7C2"></path>
<path d="M63.5058 390.134C63.6281 390.012 63.7504 389.889 63.7504 389.645C63.7504 389.033 63.6281 388.544 63.6281 387.933C63.2613 384.019 62.7721 379.005 64.1173 373.135C66.9301 361.639 73.0449 353.445 77.6921 348.676C77.9367 348.431 77.9367 348.187 77.6921 347.942C77.4475 347.697 77.2029 347.82 76.9583 347.942C72.1888 352.834 65.9517 361.15 63.139 372.89C61.6714 378.883 62.1606 383.897 62.5275 387.933C62.5275 388.544 62.6498 389.155 62.6498 389.645C62.6498 389.889 62.8944 390.134 63.139 390.134C63.3835 390.256 63.3835 390.256 63.5058 390.134Z" fill="#FFE7C2"></path>
<path d="M100.925 346.716C70.1066 385.729 58.9777 416.669 67.9053 438.805C71.5741 447.977 77.8112 453.602 85.1489 460.206C92.6089 466.933 101.17 474.637 108.874 488.212C111.075 492.125 113.032 496.161 114.744 500.319C114.377 500.441 114.133 500.564 113.766 500.686C112.054 496.528 110.097 492.615 107.896 488.701C100.191 475.371 91.7528 467.666 84.2928 460.94C76.9551 454.336 70.5958 448.588 66.8046 439.172C57.7548 416.792 68.8836 385.484 99.9466 346.105C100.069 345.86 100.436 345.86 100.68 345.983C101.047 346.227 101.17 346.472 100.925 346.716Z" fill="#FFE7C2"></path>
<path d="M68.5195 358.702C68.5195 358.702 58.8581 350.753 59.225 342.559C59.3473 339.746 60.3257 334.61 63.0162 333.999C66.0736 333.265 70.4762 338.524 71.9437 343.415C73.9005 349.897 68.5195 358.702 68.5195 358.702Z" fill="#FFE7C2"></path>
<path d="M80.0143 385.116C78.5467 383.771 82.0933 376.311 88.0858 371.663C93.0999 367.75 102.272 363.836 106.43 367.75C108.876 370.074 109.487 374.843 107.531 377.289C105.329 380.102 101.294 377.9 93.7113 379.49C85.0284 381.447 81.2372 386.339 80.0143 385.116Z" fill="#FFE7C2"></path>
<path d="M745.912 299.391C745.667 299.513 745.301 299.635 745.056 299.88C747.746 304.772 749.825 309.786 751.293 314.922C757.652 337.791 750.07 356.258 736.251 389.644L735.395 391.601C713.259 445.166 700.541 475.863 691.246 502.278C691.613 502.401 691.858 502.523 692.224 502.645C701.641 476.352 714.238 445.656 736.373 392.09L737.229 390.134C751.171 356.502 758.753 338.036 752.271 314.8C750.804 309.419 748.603 304.282 745.912 299.391Z" fill="#FFE7C2"></path>
<path d="M753.98 339.137C753.98 339.137 755.448 319.692 764.376 309.664C767.8 305.751 777.094 296.701 781.252 299.024C786.144 301.837 784.187 320.304 773.67 331.066C767.677 337.058 753.98 339.137 753.98 339.137Z" fill="#FFE7C2"></path>
<path d="M738.328 430.982C738.328 430.982 739.184 419.241 744.565 413.249C746.644 410.925 752.27 405.422 754.716 406.89C757.651 408.602 756.55 419.731 750.191 426.212C746.522 429.759 738.328 430.982 738.328 430.982Z" fill="#FFE7C2"></path>
<path d="M731.116 436.97C731.116 436.97 731.85 425.23 727.325 418.504C725.613 415.813 720.843 409.698 718.153 410.799C714.973 412.022 714.606 423.273 719.987 430.489C723.167 434.647 731.116 436.97 731.116 436.97Z" fill="#FFE7C2"></path>
<path d="M745.298 367.998C743.464 365.674 750.19 355.524 759.973 350.021C768.045 345.373 782.353 341.582 787.734 348.186C790.792 351.977 790.792 359.193 787.49 362.495C783.576 366.164 778.195 362.006 766.7 362.862C753.492 363.718 746.888 370.077 745.298 367.998Z" fill="#FFE7C2"></path>
<path d="M736.495 390.134C736.372 390.012 736.25 389.889 736.25 389.645C736.25 389.033 736.372 388.544 736.372 387.933C736.739 384.019 737.228 379.005 735.883 373.135C733.07 361.639 726.956 353.445 722.308 348.676C722.064 348.431 722.064 348.187 722.308 347.942C722.553 347.697 722.798 347.82 723.042 347.942C727.812 352.834 734.049 361.15 736.862 372.89C738.329 378.883 737.84 383.897 737.473 387.933C737.473 388.544 737.351 389.155 737.351 389.645C737.351 389.889 737.106 390.134 736.862 390.134C736.617 390.256 736.495 390.256 736.495 390.134Z" fill="#FFE7C2"></path>
<path d="M698.952 346.716C729.771 385.729 740.899 416.669 731.972 438.805C728.303 447.977 722.066 453.602 714.728 460.206C707.268 466.933 698.708 474.637 691.003 488.212C688.802 492.125 686.845 496.161 685.133 500.319C685.5 500.441 685.744 500.564 686.111 500.686C687.823 496.528 689.78 492.615 691.981 488.701C699.686 475.371 708.124 467.666 715.584 460.94C722.922 454.336 729.281 448.588 733.073 439.172C742.122 416.792 730.993 385.484 699.93 346.105C699.808 345.86 699.441 345.86 699.197 345.983C698.83 346.227 698.83 346.472 698.952 346.716Z" fill="#FFE7C2"></path>
<path d="M731.482 358.702C731.482 358.702 741.143 350.753 740.776 342.559C740.654 339.746 739.675 334.61 736.985 333.999C733.927 333.265 729.525 338.524 728.057 343.415C726.101 349.897 731.482 358.702 731.482 358.702Z" fill="#FFE7C2"></path>
<path d="M759.118 298.901C759.118 298.901 768.78 290.952 768.413 282.758C768.29 279.946 767.312 274.809 764.622 274.198C761.564 273.464 757.162 278.723 755.694 283.615C753.737 290.096 759.118 298.901 759.118 298.901Z" fill="#FFE7C2"></path>
<path d="M748.235 305.995C748.235 305.995 749.458 293.521 743.587 287.896C741.508 285.939 737.228 283.004 734.904 284.349C732.214 285.939 732.825 292.787 735.149 297.312C738.206 303.427 748.235 305.995 748.235 305.995Z" fill="#FFE7C2"></path>
<path d="M747.624 398.936C746.156 397.591 749.703 390.131 755.695 385.484C760.709 381.57 769.881 377.657 774.039 381.57C776.485 383.894 777.097 388.663 775.14 391.109C772.939 393.922 768.903 391.721 761.321 393.311C752.638 395.39 748.847 400.159 747.624 398.936Z" fill="#FFE7C2"></path>
<path d="M740.776 514.016H65.2172C58.9801 514.016 53.8438 508.88 53.8438 502.643C53.8438 496.406 58.9801 491.27 65.2172 491.27H740.653C746.89 491.27 752.027 496.406 752.027 502.643C752.149 508.88 747.013 514.016 740.776 514.016Z" fill="#FFE7C2"></path>
<path d="M663.606 492.858H142.506C115.112 492.858 92.9766 470.723 92.9766 443.329V169.51C92.9766 142.116 115.112 119.98 142.506 119.98H663.606C691 119.98 713.135 142.116 713.135 169.51V443.329C713.135 470.723 691 492.858 663.606 492.858Z" fill="#000000"></path>
<path opacity="0.1" d="M649.788 429.755H580.569C579.346 429.755 578.367 428.776 578.367 427.553V406.029C578.367 404.806 579.346 403.828 580.569 403.828H649.788C651.01 403.828 651.989 404.806 651.989 406.029V427.553C652.111 428.776 651.01 429.755 649.788 429.755Z" fill="black" fill-opacity="0.78"></path>
<path opacity="0.1" d="M225.424 429.755H156.205C154.982 429.755 154.004 428.776 154.004 427.553V406.029C154.004 404.806 154.982 403.828 156.205 403.828H225.424C226.647 403.828 227.626 404.806 227.626 406.029V427.553C227.748 428.776 226.647 429.755 225.424 429.755Z" fill="black" fill-opacity="0.78"></path>
<path d="M503.768 492.86H302.226C294.766 492.86 288.773 486.867 288.773 479.407V97.1126C288.773 89.6526 294.766 83.6602 302.226 83.6602H503.768C511.228 83.6602 517.221 89.6526 517.221 97.1126V479.407C517.221 486.867 511.228 492.86 503.768 492.86Z" fill="#9E6B93"></path>
<path d="M390.034 465.955C391.52 465.955 392.725 464.751 392.725 463.265C392.725 461.779 391.52 460.574 390.034 460.574C388.548 460.574 387.344 461.779 387.344 463.265C387.344 464.751 388.548 465.955 390.034 465.955Z" fill="#F4F4F4"></path>
<path d="M402.999 465.955C404.485 465.955 405.69 464.751 405.69 463.265C405.69 461.779 404.485 460.574 402.999 460.574C401.513 460.574 400.309 461.779 400.309 463.265C400.309 464.751 401.513 465.955 402.999 465.955Z" fill="#F4F4F4"></path>
<path d="M416.081 465.955C417.567 465.955 418.772 464.751 418.772 463.265C418.772 461.779 417.567 460.574 416.081 460.574C414.595 460.574 413.391 461.779 413.391 463.265C413.391 464.751 414.595 465.955 416.081 465.955Z" fill="#F4F4F4"></path>
<path d="M305.894 103.717C308.258 103.717 310.174 101.801 310.174 99.4366C310.174 97.0726 308.258 95.1562 305.894 95.1562C303.53 95.1562 301.613 97.0726 301.613 99.4366C301.613 101.801 303.53 103.717 305.894 103.717Z" fill="#F4F4F4"></path>
<path d="M320.815 103.717C323.179 103.717 325.096 101.801 325.096 99.4366C325.096 97.0726 323.179 95.1562 320.815 95.1562C318.452 95.1562 316.535 97.0726 316.535 99.4366C316.535 101.801 318.452 103.717 320.815 103.717Z" fill="#F4F4F4"></path>
<path d="M335.612 103.717C337.976 103.717 339.893 101.801 339.893 99.4366C339.893 97.0726 337.976 95.1562 335.612 95.1562C333.248 95.1562 331.332 97.0726 331.332 99.4366C331.332 101.801 333.248 103.717 335.612 103.717Z" fill="#F4F4F4"></path>
<path d="M698.339 506.92C700.703 506.92 702.619 505.004 702.619 502.64C702.619 500.276 700.703 498.359 698.339 498.359C695.975 498.359 694.059 500.276 694.059 502.64C694.059 505.004 695.975 506.92 698.339 506.92Z" fill="#FFD026"></path>
<path d="M713.136 506.92C715.5 506.92 717.416 505.004 717.416 502.64C717.416 500.276 715.5 498.359 713.136 498.359C710.772 498.359 708.855 500.276 708.855 502.64C708.855 505.004 710.772 506.92 713.136 506.92Z" fill="#FFD026"></path>
<path d="M727.933 506.92C730.297 506.92 732.213 505.004 732.213 502.64C732.213 500.276 730.297 498.359 727.933 498.359C725.569 498.359 723.652 500.276 723.652 502.64C723.652 505.004 725.569 506.92 727.933 506.92Z" fill="#FFD026"></path>
<path d="M642.939 346.841C624.35 337.546 595.243 337.302 577.877 346.474C560.512 355.646 561.49 370.566 580.079 379.86C598.668 389.155 627.774 389.399 645.14 380.227C662.383 371.178 661.405 356.135 642.939 346.841Z" fill="#9E6B93"></path>
<path d="M642.692 343.536C624.104 334.242 594.997 333.997 577.631 343.169C560.265 352.341 561.244 367.261 579.833 376.556C598.422 385.85 627.528 386.095 644.894 376.923C662.26 367.873 661.281 352.831 642.692 343.536Z" fill="#FFE7C2"></path>
<path d="M650.521 341.7C631.932 332.406 602.825 332.161 585.46 341.333C568.094 350.505 569.072 365.425 587.661 374.72C606.25 384.014 635.356 384.259 652.722 375.087C670.088 365.915 669.109 350.995 650.521 341.7Z" fill="#9E6B93"></path>
<path d="M650.399 338.403C631.811 329.109 602.704 328.864 585.338 338.036C567.973 347.209 568.951 362.129 587.54 371.423C606.129 380.717 635.235 380.962 652.601 371.79C669.844 362.618 668.866 347.698 650.399 338.403Z" fill="#FFE7C2"></path>
<path d="M440.907 352.711C413.023 338.647 369.364 338.525 343.193 352.222C317.144 365.919 318.612 388.421 346.373 402.363C374.256 416.427 417.915 416.549 444.086 402.852C470.135 389.155 468.668 366.653 440.907 352.711Z" fill="#9E6B93"></path>
<path d="M440.54 347.695C412.656 333.631 368.997 333.509 342.826 347.206C316.777 360.903 318.244 383.405 346.005 397.347C373.889 411.411 417.548 411.533 443.719 397.836C469.89 384.139 468.423 361.637 440.54 347.695Z" fill="#FFE7C2"></path>
<path d="M440.297 343.539C412.414 329.475 368.755 329.353 342.584 343.05C316.535 356.747 318.002 379.249 345.763 393.191C373.646 407.255 417.306 407.377 443.477 393.68C469.648 379.983 468.181 357.481 440.297 343.539Z" fill="#9E6B93"></path>
<path d="M440.051 338.52C412.168 324.456 368.509 324.333 342.337 338.03C316.289 351.727 317.756 374.23 345.517 388.171C373.4 402.235 417.06 402.358 443.231 388.661C469.28 374.963 467.935 352.461 440.051 338.52Z" fill="#FFE7C2"></path>
<path d="M439.809 334.363C411.926 320.299 368.266 320.177 342.095 333.874C316.046 347.571 317.514 370.073 345.275 384.015C373.158 398.079 416.818 398.201 442.989 384.504C469.038 370.807 467.692 348.305 439.809 334.363Z" fill="#9E6B93"></path>
<path d="M439.442 329.352C411.559 315.288 367.899 315.165 341.728 328.862C315.679 342.559 317.147 365.062 344.908 379.003C372.791 393.067 416.45 393.19 442.622 379.493C468.793 365.795 467.325 343.293 439.442 329.352Z" fill="#FFE7C2"></path>
<path d="M439.196 325.195C411.312 311.131 367.653 311.009 341.482 324.706C315.433 338.403 316.901 360.905 344.662 374.847C372.545 388.911 416.204 389.033 442.375 375.336C468.547 361.639 467.079 339.137 439.196 325.195Z" fill="#9E6B93"></path>
<path d="M438.95 320.18C411.066 306.116 367.407 305.993 341.236 319.69C315.187 333.388 316.655 355.89 344.416 369.831C372.299 383.895 415.958 384.018 442.129 370.321C468.301 356.624 466.833 334.121 438.95 320.18Z" fill="#FFE7C2"></path>
<path d="M438.704 316.02C410.82 301.956 367.161 301.833 340.99 315.53C314.941 329.227 316.408 351.73 344.169 365.671C372.053 379.735 415.712 379.858 441.883 366.161C468.054 352.463 466.587 329.961 438.704 316.02Z" fill="#9E6B93"></path>
<path d="M438.461 311.004C410.578 296.94 366.919 296.818 340.748 310.515C314.699 324.212 316.166 346.714 343.927 360.656C371.811 374.72 415.47 374.842 441.641 361.145C467.69 347.448 466.222 324.946 438.461 311.004Z" fill="#FFE7C2"></path>
<path d="M438.215 306.848C410.332 292.784 366.673 292.661 340.501 306.358C314.453 320.056 315.92 342.558 343.681 356.499C371.564 370.563 415.224 370.686 441.395 356.989C467.444 343.292 465.976 320.789 438.215 306.848Z" fill="#9E6B93"></path>
<path d="M437.852 301.836C409.969 287.772 366.309 287.65 340.138 301.347C314.089 315.044 315.557 337.546 343.318 351.488C371.201 365.552 414.861 365.674 441.032 351.977C467.203 338.28 465.735 315.778 437.852 301.836Z" fill="#FFE7C2"></path>
<path d="M447.145 300.121C419.262 286.057 375.602 285.935 349.431 299.632C323.382 313.329 324.85 335.831 352.611 349.773C380.494 363.837 424.154 363.959 450.325 350.262C476.496 336.687 475.028 314.185 447.145 300.121Z" fill="#9E6B93"></path>
<path d="M446.899 295.23C419.016 281.167 375.356 281.044 349.185 294.741C323.136 308.438 324.604 330.941 352.365 344.882C380.248 358.946 423.907 359.069 450.079 345.371C476.127 331.674 474.782 309.172 446.899 295.23Z" fill="#FFE7C2"></path>
<path d="M402.507 353.441C385.753 353.441 368.876 350.139 355.668 343.535C342.461 336.931 335.123 328.126 335.123 318.831C335.001 310.148 341.238 302.199 352.733 296.207C377.07 283.488 417.917 283.61 443.843 296.696C457.051 303.3 464.267 312.105 464.389 321.4C464.511 330.083 458.274 338.032 446.778 344.024C434.671 350.261 418.773 353.441 402.507 353.441ZM396.882 287.524C380.739 287.524 364.963 290.581 353.1 296.818C341.971 302.688 335.979 310.393 335.979 318.709C336.101 327.637 343.194 336.197 356.035 342.679C381.717 355.642 422.197 355.765 446.289 343.168C457.418 337.298 463.41 329.593 463.41 321.277C463.288 312.35 456.195 303.789 443.354 297.307C430.268 290.826 413.392 287.524 396.882 287.524Z" fill="#9E6B93"></path>
<path d="M462.555 291.074C434.672 277.01 391.012 276.888 364.841 290.585C338.792 304.282 340.26 326.784 368.021 340.726C395.904 354.79 439.564 354.912 465.735 341.215C491.906 327.518 490.438 305.138 462.555 291.074Z" fill="#9E6B93"></path>
<path d="M462.309 286.059C434.426 271.995 390.766 271.872 364.595 285.569C338.546 299.266 340.014 321.769 367.775 335.71C395.658 349.774 439.318 349.897 465.489 336.2C491.66 322.503 490.192 300.123 462.309 286.059Z" fill="#FFE7C2"></path>
<path d="M417.793 343.902C401.283 343.902 384.529 340.6 371.443 334.118C358.358 327.514 351.142 318.831 351.142 309.659C351.02 301.099 357.257 293.149 368.508 287.279C392.478 274.683 432.958 274.805 458.64 287.768C471.725 294.372 478.941 303.055 478.941 312.227C479.063 320.788 472.826 328.737 461.575 334.607C449.712 340.844 433.936 343.902 417.793 343.902ZM412.29 278.841C396.392 278.841 380.738 281.898 368.997 288.135C357.991 293.883 351.998 301.588 352.121 309.659C352.243 318.464 359.214 326.903 371.933 333.262C397.37 345.981 437.36 346.225 461.086 333.751C472.092 328.003 478.085 320.299 477.962 312.105C477.84 303.3 470.869 294.861 458.151 288.502C445.31 282.02 428.678 278.841 412.29 278.841Z" fill="#9E6B93"></path>
<path d="M409.846 171.834C379.395 154.224 353.957 167.432 352.734 202.163C352.123 219.285 357.504 239.097 367.899 257.93C378.294 276.641 392.358 292.173 407.523 301.589C408.134 301.956 408.868 302.445 409.479 302.812C439.931 320.423 465.368 307.215 466.591 272.483C467.203 255.362 461.822 235.55 451.427 216.716C441.032 197.883 426.968 182.474 411.803 173.057C411.192 172.568 410.458 172.201 409.846 171.834Z" fill="#FFE7C2"></path>
<path d="M406.419 303.915C405.808 303.548 405.196 303.181 404.585 302.814C390.032 293.887 376.579 278.967 366.673 261.112C356.767 243.134 351.631 224.178 352.12 207.791C353.221 174.649 377.558 161.93 406.664 178.807C407.275 179.174 407.887 179.541 408.498 179.908C423.051 188.835 436.504 203.755 446.41 221.61C456.316 239.588 461.452 258.543 460.963 274.931L460.596 274.686L460.963 274.931C459.862 308.073 435.526 320.792 406.419 303.915ZM406.664 175.26C375.845 157.405 350.286 170.858 349.063 205.956C347.84 241.789 372.666 286.671 404.34 306.238C404.952 306.605 405.686 307.094 406.297 307.461C437.115 325.316 462.675 311.864 463.898 276.765C465.121 240.933 440.295 196.05 408.621 176.483C408.009 175.994 407.398 175.627 406.664 175.26Z" fill="#FFE7C2"></path>
<path d="M406.419 303.915C405.808 303.548 405.196 303.181 404.585 302.814C390.032 293.887 376.579 278.967 366.673 261.112C356.767 243.134 351.631 224.178 352.12 207.791C353.221 174.649 377.558 161.93 406.664 178.807C407.275 179.174 407.887 179.541 408.498 179.908C423.051 188.835 436.504 203.755 446.41 221.61C456.316 239.588 461.452 258.543 460.963 274.931L460.596 274.686L460.963 274.931C459.862 308.073 435.526 320.792 406.419 303.915ZM406.664 175.26C375.845 157.405 350.286 170.858 349.063 205.956C347.84 241.789 372.666 286.671 404.34 306.238C404.952 306.605 405.686 307.094 406.297 307.461C437.115 325.316 462.675 311.864 463.898 276.765C465.121 240.933 440.295 196.05 408.621 176.483C408.009 175.994 407.398 175.627 406.664 175.26Z" fill="black" fill-opacity="0.4"></path>
<path d="M445.921 221.854C436.137 204.121 422.807 189.446 408.498 180.641C407.887 180.274 407.276 179.907 406.664 179.54C377.802 162.908 353.833 175.382 352.732 208.279C352.243 224.545 357.257 243.134 367.04 260.866C376.824 278.599 390.154 293.275 404.463 302.08C405.074 302.447 405.686 302.814 406.297 303.18C435.159 319.813 459.129 307.338 460.229 274.441C460.841 258.298 455.704 239.587 445.921 221.854Z" fill="#F9E3B2"></path>
<path d="M406.421 303.913C405.809 303.546 405.198 303.18 404.586 302.813C390.033 293.885 376.581 279.087 366.675 261.11C356.769 243.133 351.633 224.177 352.122 207.789C353.222 174.647 377.559 161.929 406.665 178.805C407.277 179.172 407.888 179.539 408.5 179.906C423.053 188.834 436.505 203.631 446.411 221.609C456.317 239.586 461.454 258.542 460.964 274.929C459.864 308.071 435.527 320.79 406.421 303.913Z" fill="#FFE7C2"></path>
<path d="M406.421 303.913C405.809 303.546 405.198 303.18 404.586 302.813C390.033 293.885 376.581 279.087 366.675 261.11C356.769 243.133 351.633 224.177 352.122 207.789C353.222 174.647 377.559 161.929 406.665 178.805C407.277 179.172 407.888 179.539 408.5 179.906C423.053 188.834 436.505 203.631 446.411 221.609C456.317 239.586 461.454 258.542 460.964 274.929C459.864 308.071 435.527 320.79 406.421 303.913Z" fill="white" fill-opacity="0.27"></path>
<path d="M367.53 163.52C365.573 178.317 364.106 179.296 350.164 173.425C364.106 183.576 365.573 186.266 367.408 203.265C369.364 188.345 370.832 187.489 384.774 193.36C370.832 183.209 369.364 180.519 367.53 163.52Z" fill="white"></path>
<path d="M156.816 325.072V309.907C156.816 308.929 157.917 308.439 158.651 309.051C161.708 311.619 166.233 315.655 167.578 321.28C168.924 326.784 167.701 335.467 167.701 335.467L156.816 325.072Z" fill="#9E6B93"></path>
<path fill-rule="evenodd" clip-rule="evenodd" d="M239.855 327.883C241.206 327.883 242.301 328.978 242.301 330.329C242.301 331.27 242.21 337.812 237.013 342.118L236.997 342.131L236.981 342.145C231.806 346.284 224.291 346.476 218.354 342.659C217.218 341.928 216.889 340.415 217.619 339.279C218.35 338.143 219.863 337.814 220.999 338.544C225.328 341.327 230.522 341.035 233.908 338.338C237.257 335.55 237.409 331.098 237.409 330.329C237.409 328.978 238.505 327.883 239.855 327.883Z" fill="#9E6B93"></path>
<path d="M189.591 381.329H185.678C166.233 381.329 150.457 365.553 150.457 346.108C150.457 326.663 166.233 310.887 185.678 310.887H189.591C209.036 310.887 224.812 326.663 224.812 346.108C224.812 365.675 209.036 381.329 189.591 381.329Z" fill="#FFE7C2"></path>
<path d="M159.387 362.491H151.071C146.056 362.491 141.898 358.333 141.898 353.318V349.16C141.898 344.146 146.056 339.988 151.071 339.988H159.387C164.401 339.988 168.559 344.146 168.559 349.16V353.318C168.681 358.455 164.523 362.491 159.387 362.491Z" fill="#FFE7C2"></path>
<path d="M172.224 387.074H167.455C165.987 387.074 164.887 385.851 164.887 384.505V371.42C164.887 369.952 166.11 368.852 167.455 368.852H172.224C173.692 368.852 174.793 370.075 174.793 371.42V384.505C174.793 385.851 173.692 387.074 172.224 387.074Z" fill="#FFE7C2"></path>
<path d="M185.068 387.074H180.299C178.831 387.074 177.73 385.851 177.73 384.505V371.42C177.73 369.952 178.953 368.852 180.299 368.852H185.068C186.536 368.852 187.636 370.075 187.636 371.42V384.505C187.636 385.851 186.536 387.074 185.068 387.074Z" fill="#FFE7C2"></path>
<path d="M206.838 387.074H202.068C200.601 387.074 199.5 385.851 199.5 384.505V371.42C199.5 369.952 200.723 368.852 202.068 368.852H206.838C208.305 368.852 209.406 370.075 209.406 371.42V384.505C209.528 385.851 208.305 387.074 206.838 387.074Z" fill="#FFE7C2"></path>
<path d="M164.888 345.98C166.509 345.98 167.823 344.665 167.823 343.044C167.823 341.423 166.509 340.109 164.888 340.109C163.267 340.109 161.953 341.423 161.953 343.044C161.953 344.665 163.267 345.98 164.888 345.98Z" fill="#9E6B93"></path>
<path d="M168.188 325.072V309.907C168.188 308.929 169.288 308.439 170.022 309.051C173.079 311.619 177.604 315.655 178.949 321.28C180.295 326.784 179.072 335.467 179.072 335.467L168.188 325.072Z" fill="#9E6B93"></path>
<path fill-rule="evenodd" clip-rule="evenodd" d="M180.785 319.69C180.785 318.677 181.606 317.855 182.62 317.855H193.259C194.272 317.855 195.094 318.677 195.094 319.69C195.094 320.703 194.272 321.524 193.259 321.524H182.62C181.606 321.524 180.785 320.703 180.785 319.69Z" fill="#FFE7C2"></path>
<path d="M188.125 265.265C180.542 260.863 174.183 264.165 173.816 272.847C173.694 277.128 175.039 282.142 177.607 286.789C180.176 291.436 183.722 295.35 187.513 297.673C187.636 297.796 187.88 297.918 188.002 297.918C195.585 302.321 201.944 299.019 202.311 290.336C202.433 286.055 201.088 281.041 198.52 276.394C195.952 271.747 192.405 267.833 188.614 265.51C188.492 265.387 188.369 265.387 188.125 265.265Z" fill="#9E6B93"></path>
<path d="M187.269 298.289C187.146 298.167 186.902 298.044 186.78 298.044C183.111 295.843 179.809 292.052 177.363 287.649C174.917 283.124 173.572 278.477 173.694 274.319C173.939 266.003 180.053 262.823 187.391 267.104C187.513 267.226 187.758 267.226 187.88 267.348C191.549 269.549 194.851 273.341 197.297 277.743C199.743 282.268 201.088 286.915 200.966 291.073H200.844H200.966C200.721 299.267 194.606 302.447 187.269 298.289ZM187.391 266.125C179.686 261.723 173.327 265.025 172.96 273.83C172.716 282.757 178.83 294.008 186.78 298.9C186.902 299.023 187.146 299.145 187.269 299.145C194.973 303.548 201.333 300.246 201.7 291.44C201.944 282.513 195.829 271.262 187.88 266.37C187.758 266.247 187.513 266.248 187.391 266.125Z" fill="#595854"></path>
<path d="M197.174 277.74C194.728 273.337 191.426 269.668 187.88 267.467C187.757 267.345 187.513 267.222 187.391 267.222C180.175 263.064 174.183 266.244 173.938 274.438C173.816 278.474 175.039 283.121 177.485 287.646C179.931 292.048 183.232 295.717 186.779 297.918C186.901 298.041 187.146 298.163 187.268 298.163C194.484 302.321 200.476 299.141 200.721 290.948C200.965 286.79 199.62 282.142 197.174 277.74Z" fill="#FFE7C2"></path>
<path d="M187.267 298.043C187.144 297.92 186.9 297.92 186.778 297.798C183.231 295.597 179.807 291.928 177.483 287.525C175.037 283.123 173.814 278.475 173.937 274.317C174.181 266.124 180.174 262.944 187.389 267.102C187.511 267.224 187.756 267.224 187.878 267.347C191.425 269.548 194.849 273.217 197.173 277.619C199.618 282.022 200.841 286.669 200.719 290.827C200.475 299.143 194.482 302.201 187.267 298.043ZM187.389 266.98C180.051 262.822 174.059 265.879 173.692 274.195C173.57 278.353 174.793 283 177.361 287.525C179.807 292.05 183.231 295.719 186.778 297.92C186.9 298.043 187.144 298.165 187.267 298.165C194.604 302.323 200.597 299.143 200.964 290.95H200.841H200.964C201.086 286.792 199.863 282.144 197.295 277.619C194.849 273.094 191.425 269.426 187.878 267.224C187.756 267.102 187.511 267.102 187.389 266.98Z" fill="#5E5A4A"></path>
<path opacity="0.1" d="M437.608 448.712H368.389C367.166 448.712 366.188 447.733 366.188 446.51V424.986C366.188 423.764 367.166 422.785 368.389 422.785H437.608C438.831 422.785 439.809 423.764 439.809 424.986V446.51C439.931 447.733 438.831 448.712 437.608 448.712Z" fill="black" fill-opacity="0.78"></path>
<path d="M686.352 492.861H613.219C611.874 492.861 610.773 491.76 610.773 490.415C610.773 489.069 611.874 487.969 613.219 487.969H686.352C687.697 487.969 688.798 489.069 688.798 490.415C688.798 491.76 687.697 492.861 686.352 492.861Z" fill="#9E6B93"></path>
<path d="M141.16 516.341H68.0279C66.6827 516.341 65.582 515.24 65.582 513.895C65.582 512.55 66.6827 511.449 68.0279 511.449H141.16C142.506 511.449 143.606 512.55 143.606 513.895C143.484 515.363 142.383 516.341 141.16 516.341Z" fill="#9E6B93"></path>
<path d="M528.105 492.86H249.028C247.438 492.86 246.215 491.637 246.215 490.047C246.215 488.457 247.438 487.234 249.028 487.234H528.105C529.695 487.234 530.918 488.457 530.918 490.047C531.04 491.637 529.695 492.86 528.105 492.86Z" fill="#9E6B93"></path>
</svg>
